Condition_Name,Unique_Sample_ID,Data_File,Well_Number,Blank_Unique_Sample_ID,Replicate,Wavelength_Start,Wavelength_End,Is_neg_ctrl,Time_Point,Description,Total_Concentration,Include_In_Parameter_Estimation,Reference_Spectrum_deoxythymidine,Reference_Spectrum_thymine
NK-2018-07-23-design-blank,NK-2018-07-23-blank_1,01_20180723_Exp01_Main_exp_d1_Read 3_Spectrum.tsv,D3,NK-2018-07-23-blank_1,1,250,325,False,,blank,0,1,,
NK-2018-07-23-design-blank,NK-2018-07-23-blank_2,01_20180723_Exp01_Main_exp_d1_Read 3_Spectrum.tsv,D4,NK-2018-07-23-blank_1,1,250,325,False,,blank,0,1,,
NK-2018-07-23-design-blank,NK-2018-07-24-blank_1,01_20180724_Exp01_Main_exp_d2_Read 3_Spectrum.tsv,H7,NK-2018-07-24-blank_1,1,250,325,False,,blank,0,1,,
NK-2018-07-23-design-blank,NK-2018-07-24-blank_2,01_20180724_Exp01_Main_exp_d2_Read 3_Spectrum.tsv,H8,NK-2018-07-24-blank_1,1,250,325,False,,blank,0,1,,
NK-2018-07-23-design-blank,NK-2018-07-25-blank,01_20180725_Exp01_Main_exp_d3_Read 3_Spectrum.tsv,A2,NK-2018-07-25-blank,1,250,325,False,,blank,0,1,,
NK-2018-07-23-design-blank,NK-2018-07-26-blank_1,01_20180726_Exp01_Main_exp_d4_Read 3_Spectrum.tsv,G9,NK-2018-07-26-blank_1,1,250,325,False,,blank,0,1,,
NK-2018-07-23-design-blank,NK-2018-07-26-blank_2,01_20180726_Exp01_Main_exp_d4_Read 3_Spectrum.tsv,G10,NK-2018-07-26-blank_1,1,250,325,False,,blank,0,1,,
NK-2018-07-23-design-7,NK-2018-07-23-x1222,01_20180723_Exp01_Main_exp_d1_Read 3_Spectrum.tsv,D11,NK-2018-07-23-blank_1,1,250,325,False,0,General center,2,1,,
NK-2018-07-23-design-7,NK-2018-07-23-x1238,01_20180723_Exp01_Main_exp_d1_Read 3_Spectrum.tsv,F3,NK-2018-07-23-blank_1,1,250,325,False,20,General center,2,1,,
NK-2018-07-23-design-7,NK-2018-07-23-x1254,01_20180723_Exp01_Main_exp_d1_Read 3_Spectrum.tsv,G7,NK-2018-07-23-blank_1,1,250,325,False,45,General center,2,1,,
NK-2018-07-23-design-7,NK-2018-07-23-x1270,01_20180723_Exp01_Main_exp_d1_Read 3_Spectrum.tsv,H11,NK-2018-07-23-blank_1,1,250,325,False,93,General center,2,1,,
NK-2018-07-23-design-7,NK-2018-07-23-x1286,02_20180723_Exp01_Main_exp_d1_Read 3_Spectrum.tsv,B3,NK-2018-07-23-blank_1,1,250,325,False,150,General center,2,1,,
NK-2018-07-23-design-7,NK-2018-07-23-x1302,02_20180723_Exp01_Main_exp_d1_Read 3_Spectrum.tsv,C7,NK-2018-07-23-blank_1,1,250,325,False,217,General center,2,1,,
NK-2018-07-23-design-7,NK-2018-07-23-x1318,04_20180723_Exp01_Main_exp_d1_Read 3_Spectrum.tsv,D11,NK-2018-07-23-blank_1,1,250,325,False,287,General center,2,1,,
NK-2018-07-23-design-7,NK-2018-07-23-x1334,08_20180723_Exp01_Main_exp_d1_Read 3_Spectrum.tsv,F5,NK-2018-07-23-blank_1,1,250,325,False,1440,General center,2,1,,
NK-2018-07-23-design-23,NK-2018-07-24-x1365,01_20180724_Exp01_Main_exp_d2_Read 3_Spectrum.tsv,G9,NK-2018-07-24-blank_1,1,250,325,False,0,General center,2,1,,
NK-2018-07-23-design-23,NK-2018-07-24-x1381,02_20180724_Exp01_Main_exp_d2_Read 3_Spectrum.tsv,A7,NK-2018-07-24-blank_1,1,250,325,False,20,General center,2,1,,
NK-2018-07-23-design-23,NK-2018-07-24-x1397,02_20180724_Exp01_Main_exp_d2_Read 3_Spectrum.tsv,B11,NK-2018-07-24-blank_1,1,250,325,False,45,General center,2,1,,
NK-2018-07-23-design-23,NK-2018-07-24-x1413,02_20180724_Exp01_Main_exp_d2_Read 3_Spectrum.tsv,D3,NK-2018-07-24-blank_1,1,250,325,False,90,General center,2,1,,
NK-2018-07-23-design-23,NK-2018-07-24-x1429,02_20180724_Exp01_Main_exp_d2_Read 3_Spectrum.tsv,E7,NK-2018-07-24-blank_1,1,250,325,False,150,General center,2,1,,
NK-2018-07-23-design-23,NK-2018-07-24-x1445,03_20180724_Exp01_Main_exp_d2_Read 3_Spectrum.tsv,F11,NK-2018-07-24-blank_1,1,250,325,False,217,General center,2,1,,
NK-2018-07-23-design-23,NK-2018-07-24-x1461,04_20180724_Exp01_Main_exp_d2_Read 3_Spectrum.tsv,H3,NK-2018-07-24-blank_1,1,250,325,False,289,General center,2,1,,
NK-2018-07-23-design-23,NK-2018-07-24-x1477,05_20180724_Exp01_Main_exp_d2_Read 3_Spectrum.tsv,A9,NK-2018-07-24-blank_1,1,250,325,False,1440,General center,2,1,,
NK-2018-07-23-design-39,NK-2018-07-25-x1509,02_20180725_Exp01_Main_exp_d3_Read 3_Spectrum.tsv,C1,NK-2018-07-25-blank,1,250,325,False,0,General center,2,1,,
NK-2018-07-23-design-39,NK-2018-07-25-x1525,02_20180725_Exp01_Main_exp_d3_Read 3_Spectrum.tsv,D5,NK-2018-07-25-blank,1,250,325,False,20,General center,2,1,,
NK-2018-07-23-design-39,NK-2018-07-25-x1541,02_20180725_Exp01_Main_exp_d3_Read 3_Spectrum.tsv,E9,NK-2018-07-25-blank,1,250,325,False,45,General center,2,1,,
NK-2018-07-23-design-39,NK-2018-07-25-x1557,02_20180725_Exp01_Main_exp_d3_Read 3_Spectrum.tsv,G1,NK-2018-07-25-blank,1,250,325,False,90,General center,2,1,,
NK-2018-07-23-design-39,NK-2018-07-25-x1573,04_20180725_Exp01_Main_exp_d3_Read 3_Spectrum.tsv,H5,NK-2018-07-25-blank,1,250,325,False,155,General center,2,1,,
NK-2018-07-23-design-39,NK-2018-07-25-x1589,05_20180725_Exp01_Main_exp_d3_Read 3_Spectrum.tsv,B3,NK-2018-07-25-blank,1,250,325,False,217,General center,2,1,,
NK-2018-07-23-design-39,NK-2018-07-25-x1605,06_20180725_Exp01_Main_exp_d3_Read 3_Spectrum.tsv,C7,NK-2018-07-25-blank,1,250,325,False,280,General center,2,1,,
NK-2018-07-23-design-39,NK-2018-07-25-x1621,09_20180725_Exp01_Main_exp_d3_Read 3_Spectrum.tsv,E7,NK-2018-07-25-blank,1,250,325,False,1440,General center,2,1,,
NK-2018-07-23-design-39,NK-2018-07-25-x1637,09_20180725_Exp01_Main_exp_d3_Read 3_Spectrum.tsv,F11,NK-2018-07-25-blank,1,250,325,False,1450,General center,2,1,,
NK-2018-07-23-design-53,NK-2018-07-26-x1663,02_20180726_Exp01_Main_exp_d4_Read 3_Spectrum.tsv,H5,NK-2018-07-26-blank_1,1,250,325,False,0,General center,2,1,,
NK-2018-07-23-design-53,NK-2018-07-26-x1675,03_20180726_Exp01_Main_exp_d4_Read 3_Spectrum.tsv,A5,NK-2018-07-26-blank_1,1,250,325,False,20,General center,2,1,,
NK-2018-07-23-design-53,NK-2018-07-26-x1687,03_20180726_Exp01_Main_exp_d4_Read 3_Spectrum.tsv,B5,NK-2018-07-26-blank_1,1,250,325,False,45,General center,2,1,,
NK-2018-07-23-design-53,NK-2018-07-26-x1699,03_20180726_Exp01_Main_exp_d4_Read 3_Spectrum.tsv,C5,NK-2018-07-26-blank_1,1,250,325,False,90,General center,2,1,,
NK-2018-07-23-design-53,NK-2018-07-26-x1711,04_20180726_Exp01_Main_exp_d4_Read 3_Spectrum.tsv,D5,NK-2018-07-26-blank_1,1,250,325,False,151,General center,2,1,,
NK-2018-07-23-design-53,NK-2018-07-26-x1723,04_20180726_Exp01_Main_exp_d4_Read 3_Spectrum.tsv,E5,NK-2018-07-26-blank_1,1,250,325,False,211,General center,2,1,,
NK-2018-07-23-design-53,NK-2018-07-26-x1735,05_20180726_Exp01_Main_exp_d4_Read 3_Spectrum.tsv,F5,NK-2018-07-26-blank_1,1,250,325,False,290,General center,2,1,,
NK-2018-07-23-design-53,NK-2018-07-26-x1747,06_20180726_Exp01_Main_exp_d4_Read 3_Spectrum.tsv,G5,NK-2018-07-26-blank_1,1,250,325,False,1440,General center,2,1,,
NK-2018-07-23-design-53,NK-2018-07-26-x1759,06_20180726_Exp01_Main_exp_d4_Read 3_Spectrum.tsv,H5,NK-2018-07-26-blank_1,1,250,325,False,1450,General center,2,1,,
NK-2018-07-23-design-15,NK-2018-07-23-x1230,01_20180723_Exp01_Main_exp_d1_Read 3_Spectrum.tsv,E7,NK-2018-07-23-blank_1,1,250,325,False,0,General center_2,2,1,,
NK-2018-07-23-design-15,NK-2018-07-23-x1246,01_20180723_Exp01_Main_exp_d1_Read 3_Spectrum.tsv,F11,NK-2018-07-23-blank_1,1,250,325,False,20,General center_2,2,1,,
NK-2018-07-23-design-15,NK-2018-07-23-x1262,01_20180723_Exp01_Main_exp_d1_Read 3_Spectrum.tsv,H3,NK-2018-07-23-blank_1,1,250,325,False,45,General center_2,2,1,,
NK-2018-07-23-design-15,NK-2018-07-23-x1278,02_20180723_Exp01_Main_exp_d1_Read 3_Spectrum.tsv,A7,NK-2018-07-23-blank_1,1,250,325,False,93,General center_2,2,1,,
NK-2018-07-23-design-15,NK-2018-07-23-x1294,02_20180723_Exp01_Main_exp_d1_Read 3_Spectrum.tsv,B11,NK-2018-07-23-blank_1,1,250,325,False,150,General center_2,2,1,,
NK-2018-07-23-design-15,NK-2018-07-23-x1310,03_20180723_Exp01_Main_exp_d1_Read 3_Spectrum.tsv,D3,NK-2018-07-23-blank_1,1,250,325,False,217,General center_2,2,1,,
NK-2018-07-23-design-15,NK-2018-07-23-x1326,05_20180723_Exp01_Main_exp_d1_Read 3_Spectrum.tsv,E7,NK-2018-07-23-blank_1,1,250,325,False,287,General center_2,2,1,,
NK-2018-07-23-design-15,NK-2018-07-23-x1342,09_20180723_Exp01_Main_exp_d1_Read 3_Spectrum.tsv,G1,NK-2018-07-23-blank_1,1,250,325,False,1440,General center_2,2,1,,
NK-2018-07-23-design-31,NK-2018-07-24-x1373,01_20180724_Exp01_Main_exp_d2_Read 3_Spectrum.tsv,H5,NK-2018-07-24-blank_1,1,250,325,False,0,General center_2,2,1,,
NK-2018-07-23-design-31,NK-2018-07-24-x1389,02_20180724_Exp01_Main_exp_d2_Read 3_Spectrum.tsv,B3,NK-2018-07-24-blank_1,1,250,325,False,20,General center_2,2,1,,
NK-2018-07-23-design-31,NK-2018-07-24-x1405,02_20180724_Exp01_Main_exp_d2_Read 3_Spectrum.tsv,C7,NK-2018-07-24-blank_1,1,250,325,False,45,General center_2,2,1,,
NK-2018-07-23-design-31,NK-2018-07-24-x1421,02_20180724_Exp01_Main_exp_d2_Read 3_Spectrum.tsv,D11,NK-2018-07-24-blank_1,1,250,325,False,90,General center_2,2,1,,
NK-2018-07-23-design-31,NK-2018-07-24-x1437,02_20180724_Exp01_Main_exp_d2_Read 3_Spectrum.tsv,F3,NK-2018-07-24-blank_1,1,250,325,False,150,General center_2,2,1,,
NK-2018-07-23-design-31,NK-2018-07-24-x1453,04_20180724_Exp01_Main_exp_d2_Read 3_Spectrum.tsv,G7,NK-2018-07-24-blank_1,1,250,325,False,217,General center_2,2,1,,
NK-2018-07-23-design-31,NK-2018-07-24-x1469,04_20180724_Exp01_Main_exp_d2_Read 3_Spectrum.tsv,H11,NK-2018-07-24-blank_1,1,250,325,False,289,General center_2,2,1,,
NK-2018-07-23-design-31,NK-2018-07-24-x1485,06_20180724_Exp01_Main_exp_d2_Read 3_Spectrum.tsv,B5,NK-2018-07-24-blank_1,1,250,325,False,1440,General center_2,2,1,,
NK-2018-07-23-design-47,NK-2018-07-25-x1517,02_20180725_Exp01_Main_exp_d3_Read 3_Spectrum.tsv,C9,NK-2018-07-25-blank,1,250,325,False,0,General center_2,2,1,,
NK-2018-07-23-design-47,NK-2018-07-25-x1533,02_20180725_Exp01_Main_exp_d3_Read 3_Spectrum.tsv,E1,NK-2018-07-25-blank,1,250,325,False,20,General center_2,2,1,,
NK-2018-07-23-design-47,NK-2018-07-25-x1549,02_20180725_Exp01_Main_exp_d3_Read 3_Spectrum.tsv,F5,NK-2018-07-25-blank,1,250,325,False,45,General center_2,2,1,,
NK-2018-07-23-design-47,NK-2018-07-25-x1565,02_20180725_Exp01_Main_exp_d3_Read 3_Spectrum.tsv,G9,NK-2018-07-25-blank,1,250,325,False,90,General center_2,2,1,,
NK-2018-07-23-design-47,NK-2018-07-25-x1581,05_20180725_Exp01_Main_exp_d3_Read 3_Spectrum.tsv,A7,NK-2018-07-25-blank,1,250,325,False,155,General center_2,2,1,,
NK-2018-07-23-design-47,NK-2018-07-25-x1597,05_20180725_Exp01_Main_exp_d3_Read 3_Spectrum.tsv,B11,NK-2018-07-25-blank,1,250,325,False,217,General center_2,2,1,,
NK-2018-07-23-design-47,NK-2018-07-25-x1613,07_20180725_Exp01_Main_exp_d3_Read 3_Spectrum.tsv,D3,NK-2018-07-25-blank,1,250,325,False,280,General center_2,2,1,,
NK-2018-07-23-design-47,NK-2018-07-25-x1629,09_20180725_Exp01_Main_exp_d3_Read 3_Spectrum.tsv,F3,NK-2018-07-25-blank,1,250,325,False,1440,General center_2,2,1,,
NK-2018-07-23-design-47,NK-2018-07-25-x1645,09_20180725_Exp01_Main_exp_d3_Read 3_Spectrum.tsv,G7,NK-2018-07-25-blank,1,250,325,False,1450,General center_2,2,1,,
NK-2018-07-23-design-59,NK-2018-07-26-x1669,02_20180726_Exp01_Main_exp_d4_Read 3_Spectrum.tsv,H11,NK-2018-07-26-blank_1,1,250,325,False,0,General center_2,2,1,,
NK-2018-07-23-design-59,NK-2018-07-26-x1681,03_20180726_Exp01_Main_exp_d4_Read 3_Spectrum.tsv,A11,NK-2018-07-26-blank_1,1,250,325,False,20,General center_2,2,1,,
NK-2018-07-23-design-59,NK-2018-07-26-x1693,03_20180726_Exp01_Main_exp_d4_Read 3_Spectrum.tsv,B11,NK-2018-07-26-blank_1,1,250,325,False,45,General center_2,2,1,,
NK-2018-07-23-design-59,NK-2018-07-26-x1705,03_20180726_Exp01_Main_exp_d4_Read 3_Spectrum.tsv,C11,NK-2018-07-26-blank_1,1,250,325,False,90,General center_2,2,1,,
NK-2018-07-23-design-59,NK-2018-07-26-x1717,04_20180726_Exp01_Main_exp_d4_Read 3_Spectrum.tsv,D11,NK-2018-07-26-blank_1,1,250,325,False,151,General center_2,2,1,,
NK-2018-07-23-design-59,NK-2018-07-26-x1729,04_20180726_Exp01_Main_exp_d4_Read 3_Spectrum.tsv,E11,NK-2018-07-26-blank_1,1,250,325,False,211,General center_2,2,1,,
NK-2018-07-23-design-59,NK-2018-07-26-x1741,05_20180726_Exp01_Main_exp_d4_Read 3_Spectrum.tsv,F11,NK-2018-07-26-blank_1,1,250,325,False,290,General center_2,2,1,,
NK-2018-07-23-design-59,NK-2018-07-26-x1753,06_20180726_Exp01_Main_exp_d4_Read 3_Spectrum.tsv,G11,NK-2018-07-26-blank_1,1,250,325,False,1440,General center_2,2,1,,
NK-2018-07-23-design-59,NK-2018-07-26-x1765,06_20180726_Exp01_Main_exp_d4_Read 3_Spectrum.tsv,H11,NK-2018-07-26-blank_1,1,250,325,False,1450,General center_2,2,1,,
