,,,,,,,,,,,,,,,,,
,Entry,base1,nucl1,phos,R1P,enz1_comp_ENP,enz1,description,description_2,filename,sheetname,data_starts_in_row,data_is_in_columns,names_of_data_columns,data_length_in_rows,factor_t,offset_t
1,15,0,5,80,0,0,0.0125091,"phosphate = 80mM, enzyme = 0.0125mM",NK-2018-07-23-design-17,./data/data_NK-2018-07-23-design-17.xls,0,2,"'B,C,D,E,F,G,H,I'","['t', 'nucl1', 'variance_nucl1', 'variance_phos', 'variance_enz1', 'variance_enz1_comp_ENP', 'variance_base1', 'variance_R1P']",8,1,0
2,21,0,5,80,0,0,0.0500364,"phosphate = 80mM, enzyme = 0.05mM",NK-2018-07-23-design-26,./data/data_NK-2018-07-23-design-26.xls,0,2,"'B,C,D,E,F,G,H,I'","['t', 'nucl1', 'variance_nucl1', 'variance_phos', 'variance_enz1', 'variance_enz1_comp_ENP', 'variance_base1', 'variance_R1P']",8,1,0
