git_package,git_file,git_commit,storage_filename
/home/r.giessmann/git/data_of_master_thesis_NK_Niels-Krausch,WIP/Data-tsv/2018-07-23 Main_exp/Exp01/01_20180723_Exp01_Main_exp_d1_Read 3_Spectrum.tsv,100183c83e8e02e534104300123ed81dabe06bae,00__fit_raw_spectral_data/01_20180723_Exp01_Main_exp_d1_Read 3_Spectrum.tsv
/home/r.giessmann/git/data_of_master_thesis_NK_Niels-Krausch,WIP/Data-tsv/2018-07-23 Main_exp/Exp01/02_20180723_Exp01_Main_exp_d1_Read 3_Spectrum.tsv,100183c83e8e02e534104300123ed81dabe06bae,00__fit_raw_spectral_data/02_20180723_Exp01_Main_exp_d1_Read 3_Spectrum.tsv
/home/r.giessmann/git/data_of_master_thesis_NK_Niels-Krausch,WIP/Data-tsv/2018-07-23 Main_exp/Exp01/03_20180723_Exp01_Main_exp_d1_Read 3_Spectrum.tsv,100183c83e8e02e534104300123ed81dabe06bae,00__fit_raw_spectral_data/03_20180723_Exp01_Main_exp_d1_Read 3_Spectrum.tsv
/home/r.giessmann/git/data_of_master_thesis_NK_Niels-Krausch,WIP/Data-tsv/2018-07-23 Main_exp/Exp01/04_20180723_Exp01_Main_exp_d1_Read 3_Spectrum.tsv,100183c83e8e02e534104300123ed81dabe06bae,00__fit_raw_spectral_data/04_20180723_Exp01_Main_exp_d1_Read 3_Spectrum.tsv
/home/r.giessmann/git/data_of_master_thesis_NK_Niels-Krausch,WIP/Data-tsv/2018-07-23 Main_exp/Exp01/05_20180723_Exp01_Main_exp_d1_Read 3_Spectrum.tsv,100183c83e8e02e534104300123ed81dabe06bae,00__fit_raw_spectral_data/05_20180723_Exp01_Main_exp_d1_Read 3_Spectrum.tsv
/home/r.giessmann/git/data_of_master_thesis_NK_Niels-Krausch,WIP/Data-tsv/2018-07-23 Main_exp/Exp01/07_20180723_Exp01_Main_exp_d1_Read 3_Spectrum.tsv,100183c83e8e02e534104300123ed81dabe06bae,00__fit_raw_spectral_data/07_20180723_Exp01_Main_exp_d1_Read 3_Spectrum.tsv
/home/r.giessmann/git/data_of_master_thesis_NK_Niels-Krausch,WIP/Data-tsv/2018-07-23 Main_exp/Exp01/08_20180723_Exp01_Main_exp_d1_Read 3_Spectrum.tsv,100183c83e8e02e534104300123ed81dabe06bae,00__fit_raw_spectral_data/08_20180723_Exp01_Main_exp_d1_Read 3_Spectrum.tsv
/home/r.giessmann/git/data_of_master_thesis_NK_Niels-Krausch,WIP/Data-tsv/2018-07-23 Main_exp/Exp01/09_20180723_Exp01_Main_exp_d1_Read 3_Spectrum.tsv,100183c83e8e02e534104300123ed81dabe06bae,00__fit_raw_spectral_data/09_20180723_Exp01_Main_exp_d1_Read 3_Spectrum.tsv
/home/r.giessmann/git/data_of_master_thesis_NK_Niels-Krausch,WIP/Data-tsv/2018-07-24 Main_exp_d2/Exp01/01_20180724_Exp01_Main_exp_d2_Read 3_Spectrum.tsv,100183c83e8e02e534104300123ed81dabe06bae,00__fit_raw_spectral_data/01_20180724_Exp01_Main_exp_d2_Read 3_Spectrum.tsv
/home/r.giessmann/git/data_of_master_thesis_NK_Niels-Krausch,WIP/Data-tsv/2018-07-24 Main_exp_d2/Exp01/02_20180724_Exp01_Main_exp_d2_Read 3_Spectrum.tsv,100183c83e8e02e534104300123ed81dabe06bae,00__fit_raw_spectral_data/02_20180724_Exp01_Main_exp_d2_Read 3_Spectrum.tsv
/home/r.giessmann/git/data_of_master_thesis_NK_Niels-Krausch,WIP/Data-tsv/2018-07-24 Main_exp_d2/Exp01/03_20180724_Exp01_Main_exp_d2_Read 3_Spectrum.tsv,100183c83e8e02e534104300123ed81dabe06bae,00__fit_raw_spectral_data/03_20180724_Exp01_Main_exp_d2_Read 3_Spectrum.tsv
/home/r.giessmann/git/data_of_master_thesis_NK_Niels-Krausch,WIP/Data-tsv/2018-07-24 Main_exp_d2/Exp01/04_20180724_Exp01_Main_exp_d2_Read 3_Spectrum.tsv,100183c83e8e02e534104300123ed81dabe06bae,00__fit_raw_spectral_data/04_20180724_Exp01_Main_exp_d2_Read 3_Spectrum.tsv
/home/r.giessmann/git/data_of_master_thesis_NK_Niels-Krausch,WIP/Data-tsv/2018-07-24 Main_exp_d2/Exp01/05_20180724_Exp01_Main_exp_d2_Read 3_Spectrum.tsv,100183c83e8e02e534104300123ed81dabe06bae,00__fit_raw_spectral_data/05_20180724_Exp01_Main_exp_d2_Read 3_Spectrum.tsv
/home/r.giessmann/git/data_of_master_thesis_NK_Niels-Krausch,WIP/Data-tsv/2018-07-24 Main_exp_d2/Exp01/06_20180724_Exp01_Main_exp_d2_Read 3_Spectrum.tsv,100183c83e8e02e534104300123ed81dabe06bae,00__fit_raw_spectral_data/06_20180724_Exp01_Main_exp_d2_Read 3_Spectrum.tsv
/home/r.giessmann/git/data_of_master_thesis_NK_Niels-Krausch,WIP/Data-tsv/2018-07-25 Main_exp_d3/Exp01/01_20180725_Exp01_Main_exp_d3_Read 3_Spectrum.tsv,100183c83e8e02e534104300123ed81dabe06bae,00__fit_raw_spectral_data/01_20180725_Exp01_Main_exp_d3_Read 3_Spectrum.tsv
/home/r.giessmann/git/data_of_master_thesis_NK_Niels-Krausch,WIP/Data-tsv/2018-07-25 Main_exp_d3/Exp01/02_20180725_Exp01_Main_exp_d3_Read 3_Spectrum.tsv,100183c83e8e02e534104300123ed81dabe06bae,00__fit_raw_spectral_data/02_20180725_Exp01_Main_exp_d3_Read 3_Spectrum.tsv
/home/r.giessmann/git/data_of_master_thesis_NK_Niels-Krausch,WIP/Data-tsv/2018-07-25 Main_exp_d3/Exp01/03_20180725_Exp01_Main_exp_d3_Read 3_Spectrum.tsv,100183c83e8e02e534104300123ed81dabe06bae,00__fit_raw_spectral_data/03_20180725_Exp01_Main_exp_d3_Read 3_Spectrum.tsv
/home/r.giessmann/git/data_of_master_thesis_NK_Niels-Krausch,WIP/Data-tsv/2018-07-25 Main_exp_d3/Exp01/04_20180725_Exp01_Main_exp_d3_Read 3_Spectrum.tsv,100183c83e8e02e534104300123ed81dabe06bae,00__fit_raw_spectral_data/04_20180725_Exp01_Main_exp_d3_Read 3_Spectrum.tsv
/home/r.giessmann/git/data_of_master_thesis_NK_Niels-Krausch,WIP/Data-tsv/2018-07-25 Main_exp_d3/Exp01/05_20180725_Exp01_Main_exp_d3_Read 3_Spectrum.tsv,100183c83e8e02e534104300123ed81dabe06bae,00__fit_raw_spectral_data/05_20180725_Exp01_Main_exp_d3_Read 3_Spectrum.tsv
/home/r.giessmann/git/data_of_master_thesis_NK_Niels-Krausch,WIP/Data-tsv/2018-07-25 Main_exp_d3/Exp01/06_20180725_Exp01_Main_exp_d3_Read 3_Spectrum.tsv,100183c83e8e02e534104300123ed81dabe06bae,00__fit_raw_spectral_data/06_20180725_Exp01_Main_exp_d3_Read 3_Spectrum.tsv
/home/r.giessmann/git/data_of_master_thesis_NK_Niels-Krausch,WIP/Data-tsv/2018-07-25 Main_exp_d3/Exp01/07_20180725_Exp01_Main_exp_d3_Read 3_Spectrum.tsv,100183c83e8e02e534104300123ed81dabe06bae,00__fit_raw_spectral_data/07_20180725_Exp01_Main_exp_d3_Read 3_Spectrum.tsv
/home/r.giessmann/git/data_of_master_thesis_NK_Niels-Krausch,WIP/Data-tsv/2018-07-25 Main_exp_d3/Exp01/09_20180725_Exp01_Main_exp_d3_Read 3_Spectrum.tsv,100183c83e8e02e534104300123ed81dabe06bae,00__fit_raw_spectral_data/09_20180725_Exp01_Main_exp_d3_Read 3_Spectrum.tsv
/home/r.giessmann/git/data_of_master_thesis_NK_Niels-Krausch,WIP/Data-tsv/2018-07-26 Main_exp_d4/Exp01/01_20180726_Exp01_Main_exp_d4_Read 3_Spectrum.tsv,100183c83e8e02e534104300123ed81dabe06bae,00__fit_raw_spectral_data/01_20180726_Exp01_Main_exp_d4_Read 3_Spectrum.tsv
/home/r.giessmann/git/data_of_master_thesis_NK_Niels-Krausch,WIP/Data-tsv/2018-07-26 Main_exp_d4/Exp01/02_20180726_Exp01_Main_exp_d4_Read 3_Spectrum.tsv,100183c83e8e02e534104300123ed81dabe06bae,00__fit_raw_spectral_data/02_20180726_Exp01_Main_exp_d4_Read 3_Spectrum.tsv
/home/r.giessmann/git/data_of_master_thesis_NK_Niels-Krausch,WIP/Data-tsv/2018-07-26 Main_exp_d4/Exp01/03_20180726_Exp01_Main_exp_d4_Read 3_Spectrum.tsv,100183c83e8e02e534104300123ed81dabe06bae,00__fit_raw_spectral_data/03_20180726_Exp01_Main_exp_d4_Read 3_Spectrum.tsv
/home/r.giessmann/git/data_of_master_thesis_NK_Niels-Krausch,WIP/Data-tsv/2018-07-26 Main_exp_d4/Exp01/04_20180726_Exp01_Main_exp_d4_Read 3_Spectrum.tsv,100183c83e8e02e534104300123ed81dabe06bae,00__fit_raw_spectral_data/04_20180726_Exp01_Main_exp_d4_Read 3_Spectrum.tsv
/home/r.giessmann/git/data_of_master_thesis_NK_Niels-Krausch,WIP/Data-tsv/2018-07-26 Main_exp_d4/Exp01/05_20180726_Exp01_Main_exp_d4_Read 3_Spectrum.tsv,100183c83e8e02e534104300123ed81dabe06bae,00__fit_raw_spectral_data/05_20180726_Exp01_Main_exp_d4_Read 3_Spectrum.tsv
/home/r.giessmann/git/data_of_master_thesis_NK_Niels-Krausch,WIP/Data-tsv/2018-07-26 Main_exp_d4/Exp01/06_20180726_Exp01_Main_exp_d4_Read 3_Spectrum.tsv,100183c83e8e02e534104300123ed81dabe06bae,00__fit_raw_spectral_data/06_20180726_Exp01_Main_exp_d4_Read 3_Spectrum.tsv
,,,
/home/r.giessmann/git/data_toolbox,./data_toolbox/data_toolbox.py,,00__fit_raw_spectral_data/*
,,,
/home/r.giessmann/git/gitflower_storage_for_publication,figureS3/storage/00__fit_raw_spectral_data/metadata-figureS3.csv,,00__fit_raw_spectral_data/metadata.csv
/home/r.giessmann/git/gitflower_storage_for_publication,figureS3/storage/00__fit_raw_spectral_data/00_fit_raw_spectral_data.py,,00__fit_raw_spectral_data/*
/home/r.giessmann/git/FEK_data_of_master_thesis,reference_spectra/ca_1mM_Thymidine_in_200mM_NaOH_with_300uL_well_fill.csv,,00__fit_raw_spectral_data/reference_spectra/*
/home/r.giessmann/git/FEK_data_of_master_thesis,reference_spectra/ca_1mM_Thymine_in_200mM_NaOH_with_300uL_well_fill.csv,,00__fit_raw_spectral_data/reference_spectra/*
,,,
/home/r.giessmann/git/gitflower_storage_for_publication,figureS3/storage/01__convert_to_excel/metadata-template-for-parameter-estimation.csv,,01__convert_to_excel/*
/home/r.giessmann/git/gitflower_storage_for_publication,figureS3/storage/01__convert_to_excel/01_convert_to_excel.py,,01__convert_to_excel/*
,,,
/home/r.giessmann/git/gitflower_storage_for_publication,figureS3/storage/02__simulate_and_plot/model.py,,02__simulate_and_plot/*
/home/r.giessmann/git/gitflower_storage_for_publication,figureS3/storage/02__simulate_and_plot/simplot_starter.py,,02__simulate_and_plot/*
/home/r.giessmann/git/gitflower_storage_for_publication,figureS3/storage/02__simulate_and_plot/simplot_starter.sh,,02__simulate_and_plot/*
/home/r.giessmann/git/gitflower_storage_for_publication,figureS3/storage/02__simulate_and_plot/02_simulate_and_plot.py,,02__simulate_and_plot/*
/home/r.giessmann/git/mbdoe-python,mbdoe.py,,02__simulate_and_plot/*
/home/r.giessmann/git/gitflower_storage_for_publication,figureS3/storage/02__simulate_and_plot/results.json,,02__simulate_and_plot/*
/home/r.giessmann/git/gitflower_storage_for_publication,figureS3/storage/02__simulate_and_plot/metadata_general_center.csv,,02__simulate_and_plot/*
,,,
/home/r.giessmann/git/gitflower_storage_for_publication,figureS3/storage/run.py,,*
