units ->,,,,,,,,,,,,,! PUT THIS ALWAYS IN ALPHABETICAL ORDER !,,,,,
Entry,base1,nucl1,phos,enz in uL,R1P,enz1_comp_ENP,enz1,description_1,description,description_2,filename,sheetname,data_starts_in_row,data_is_in_columns,names_of_data_columns,data_length_in_rows,factor_t,offset_t
1,0,0.8,2,3.39,0,0,0.0125,Exp #1,NK-2018-07-23-design-1,1,,0,2,,,,1,0
2,0,0.8,2,13.56,0,0,0.05,Exp #2,NK-2018-07-23-design-2,2,,0,2,,,,1,0
3,0,0.8,80,3.39,0,0,0.0125,Exp #3,NK-2018-07-23-design-3,3,,0,2,,,,1,0
4,0,0.8,80,13.56,0,0,0.05,Exp #4,NK-2018-07-23-design-4,4,,0,2,,,,1,0
5,0,5,2,3.39,0,0,0.0125,Exp #5,NK-2018-07-23-design-5,5,,0,2,,,,1,0
6,0,5,2,13.56,0,0,0.05,Exp #6,NK-2018-07-23-design-6,6,,0,2,,,,1,0
7,0,2,75,6.78,0,0,0.025,Exp #7,NK-2018-07-23-design-7,General center,,0,2,,,,1,0
8,0,0.8,2,3.39,0,0,0.0125,Exp #8,NK-2018-07-23-design-9,1_2,,0,2,,,,1,0
9,0,0.8,2,13.56,0,0,0.05,Exp #9,NK-2018-07-23-design-10,2_2,,0,2,,,,1,0
10,0,0.8,80,3.39,0,0,0.0125,Exp #10,NK-2018-07-23-design-11,3_2,,0,2,,,,1,0
11,0,0.8,80,13.56,0,0,0.05,Exp #11,NK-2018-07-23-design-12,4_2,,0,2,,,,1,0
12,0,5,2,3.39,0,0,0.0125,Exp #12,NK-2018-07-23-design-13,5_2,,0,2,,,,1,0
13,0,5,2,13.56,0,0,0.05,Exp #13,NK-2018-07-23-design-14,6_2,,0,2,,,,1,0
14,0,2,75,6.78,0,0,0.025,Exp #14,NK-2018-07-23-design-15,General center_2,,0,2,,,,1,0
15,0,5,80,3.39,0,0,0.0125,Exp #15,NK-2018-07-23-design-17,7,,0,2,,,,1,0
16,0,0.8,28,6.78,0,0,0.025,Exp #16,NK-2018-07-23-design-19,9,,0,2,,,,1,0
17,0,5,28,6.78,0,0,0.025,Exp #17,NK-2018-07-23-design-20,10,,0,2,,,,1,0
18,0,0.8,54,10.17,0,0,0.0375,Exp #18,NK-2018-07-23-design-21,11,,0,2,,,,1,0
19,0,5,54,10.17,0,0,0.0375,Exp #19,NK-2018-07-23-design-22,12,,0,2,,,,1,0
20,0,5,80,3.39,0,0,0.0125,Exp #20,NK-2018-07-23-design-25,7_2,,0,2,,,,1,0
21,0,5,80,13.56,0,0,0.05,Exp #21,NK-2018-07-23-design-26,8_2,,0,2,,,,1,0
22,0,0.8,28,6.78,0,0,0.025,Exp #22,NK-2018-07-23-design-27,9_2,,0,2,,,,1,0
23,0,5,28,6.78,0,0,0.025,Exp #23,NK-2018-07-23-design-28,10_2,,0,2,,,,1,0
24,0,0.8,54,10.17,0,0,0.0375,Exp #24,NK-2018-07-23-design-29,11_2,,0,2,,,,1,0
25,0,5,54,10.17,0,0,0.0375,Exp #25,NK-2018-07-23-design-30,12_2,,0,2,,,,1,0
26,0,2,75,6.78,0,0,0.025,Exp #26,NK-2018-07-23-design-31,General center_2,,0,2,,,,1,0
27,0,2.2,2,6.78,0,0,0.025,Exp #27,NK-2018-07-23-design-33,13,,0,2,,,,1,0
28,0,2.2,80,6.78,0,0,0.025,Exp #28,NK-2018-07-23-design-34,14,,0,2,,,,1,0
29,0,2.2,28,10.17,0,0,0.0375,Exp #29,NK-2018-07-23-design-35,15,,0,2,,,,1,0
30,0,2.2,54,3.39,0,0,0.0125,Exp #30,NK-2018-07-23-design-36,16,,0,2,,,,1,0
31,0,2,75,6.78,0,0,0.025,Exp #31,NK-2018-07-23-design-39,General center,,0,2,,,,1,0
32,0,2.2,2,6.78,0,0,0.025,Exp #32,NK-2018-07-23-design-41,13_2,,0,2,,,,1,0
33,0,2.2,80,6.78,0,0,0.025,Exp #33,NK-2018-07-23-design-42,14_2,,0,2,,,,1,0
34,0,2.2,28,10.17,0,0,0.0375,Exp #34,NK-2018-07-23-design-43,15_2,,0,2,,,,1,0
35,0,2.2,54,3.39,0,0,0.0125,Exp #35,NK-2018-07-23-design-44,16_2,,0,2,,,,1,0
36,0,2.2,54,13.56,0,0,0.05,Exp #36,NK-2018-07-23-design-45,17_2,,0,2,,,,1,0
37,0,3.6,2,10.17,0,0,0.0375,Exp #37,NK-2018-07-23-design-46,18_2,,0,2,,,,1,0
38,0,2,75,6.78,0,0,0.025,Exp #38,NK-2018-07-23-design-47,General center_2,,0,2,,,,1,0
39,0,3.6,80,10.17,0,0,0.0375,Exp #39,NK-2018-07-23-design-49,19,,0,2,,,,1,0
40,0,3.6,28,3.39,0,0,0.0125,Exp #40,NK-2018-07-23-design-50,20,,0,2,,,,1,0
41,0,3.6,28,13.56,0,0,0.05,Exp #41,NK-2018-07-23-design-51,21,,0,2,,,,1,0
42,0,3.6,54,6.78,0,0,0.025,Exp #42,NK-2018-07-23-design-52,22,,0,2,,,,1,0
43,0,2,75,6.78,0,0,0.025,Exp #43,NK-2018-07-23-design-53,General center,,0,2,,,,1,0
44,0,3.6,80,10.17,0,0,0.0375,Exp #44,NK-2018-07-23-design-55,19_2,,0,2,,,,1,0
45,0,3.6,28,3.39,0,0,0.0125,Exp #45,NK-2018-07-23-design-56,20_2,,0,2,,,,1,0
46,0,3.6,28,13.56,0,0,0.05,Exp #46,NK-2018-07-23-design-57,21_2,,0,2,,,,1,0
47,0,3.6,54,6.78,0,0,0.025,Exp #47,NK-2018-07-23-design-58,22_2,,0,2,,,,1,0
48,0,2,75,6.78,0,0,0.025,Exp #48,NK-2018-07-23-design-59,General center_2,,0,2,,,,1,0
