Condition_Name,Unique_Sample_ID,Data_File,Well_Number,Blank_Unique_Sample_ID,Replicate,Wavelength_Start,Wavelength_End,Is_neg_ctrl,Time_Point,Description,Total_Concentration,Include_In_Parameter_Estimation,Reference_Spectrum_deoxythymidine,Reference_Spectrum_thymine
NK-2018-07-23-design-blank,NK-2018-07-23-blank_1,01_20180723_Exp01_Main_exp_d1_Read 3_Spectrum.tsv,D3,NK-2018-07-23-blank_1,1,250,325,False,,blank,0,1,,
NK-2018-07-23-design-blank,NK-2018-07-23-blank_2,01_20180723_Exp01_Main_exp_d1_Read 3_Spectrum.tsv,D4,NK-2018-07-23-blank_1,1,250,325,False,,blank,0,1,,
NK-2018-07-23-design-1,NK-2018-07-23-x1216,01_20180723_Exp01_Main_exp_d1_Read 3_Spectrum.tsv,D5,NK-2018-07-23-blank_1,1,250,325,False,0,1,0.8,1,,
NK-2018-07-23-design-2,NK-2018-07-23-x1217,01_20180723_Exp01_Main_exp_d1_Read 3_Spectrum.tsv,D6,NK-2018-07-23-blank_1,1,250,325,False,0,2,0.8,1,,
NK-2018-07-23-design-3,NK-2018-07-23-x1218,01_20180723_Exp01_Main_exp_d1_Read 3_Spectrum.tsv,D7,NK-2018-07-23-blank_1,1,250,325,False,0,3,0.8,1,,
NK-2018-07-23-design-4,NK-2018-07-23-x1219,01_20180723_Exp01_Main_exp_d1_Read 3_Spectrum.tsv,D8,NK-2018-07-23-blank_1,1,250,325,False,0,4,0.8,1,,
NK-2018-07-23-design-5,NK-2018-07-23-x1220,01_20180723_Exp01_Main_exp_d1_Read 3_Spectrum.tsv,D9,NK-2018-07-23-blank_1,1,250,325,False,0,5,5,1,,
NK-2018-07-23-design-6,NK-2018-07-23-x1221,01_20180723_Exp01_Main_exp_d1_Read 3_Spectrum.tsv,D10,NK-2018-07-23-blank_1,1,250,325,False,0,6,5,1,,
NK-2018-07-23-design-7,NK-2018-07-23-x1222,01_20180723_Exp01_Main_exp_d1_Read 3_Spectrum.tsv,D11,NK-2018-07-23-blank_1,1,250,325,False,0,General center,2,1,,
NK-2018-07-23-design-8,NK-2018-07-23-x1223,01_20180723_Exp01_Main_exp_d1_Read 3_Spectrum.tsv,D12,NK-2018-07-23-blank_1,1,250,325,False,0,Negative Ctrl,1,1,,
NK-2018-07-23-design-9,NK-2018-07-23-x1224,01_20180723_Exp01_Main_exp_d1_Read 3_Spectrum.tsv,E1,NK-2018-07-23-blank_1,1,250,325,False,0,1_2,0.8,1,,
NK-2018-07-23-design-10,NK-2018-07-23-x1225,01_20180723_Exp01_Main_exp_d1_Read 3_Spectrum.tsv,E2,NK-2018-07-23-blank_1,1,250,325,False,0,2_2,0.8,1,,
NK-2018-07-23-design-11,NK-2018-07-23-x1226,01_20180723_Exp01_Main_exp_d1_Read 3_Spectrum.tsv,E3,NK-2018-07-23-blank_1,1,250,325,False,0,3_2,0.8,1,,
NK-2018-07-23-design-12,NK-2018-07-23-x1227,01_20180723_Exp01_Main_exp_d1_Read 3_Spectrum.tsv,E4,NK-2018-07-23-blank_1,1,250,325,False,0,4_2,0.8,1,,
NK-2018-07-23-design-13,NK-2018-07-23-x1228,01_20180723_Exp01_Main_exp_d1_Read 3_Spectrum.tsv,E5,NK-2018-07-23-blank_1,1,250,325,False,0,5_2,5,1,,
NK-2018-07-23-design-14,NK-2018-07-23-x1229,01_20180723_Exp01_Main_exp_d1_Read 3_Spectrum.tsv,E6,NK-2018-07-23-blank_1,1,250,325,False,0,6_2,5,1,,
NK-2018-07-23-design-15,NK-2018-07-23-x1230,01_20180723_Exp01_Main_exp_d1_Read 3_Spectrum.tsv,E7,NK-2018-07-23-blank_1,1,250,325,False,0,General center_2,2,1,,
NK-2018-07-23-design-16,NK-2018-07-23-x1231,01_20180723_Exp01_Main_exp_d1_Read 3_Spectrum.tsv,E8,NK-2018-07-23-blank_1,1,250,325,True,0,Negative Ctrl_2,1,1,,
NK-2018-07-23-design-1,NK-2018-07-23-x1232,01_20180723_Exp01_Main_exp_d1_Read 3_Spectrum.tsv,E9,NK-2018-07-23-blank_1,1,250,325,False,20,1,0.8,1,,
NK-2018-07-23-design-2,NK-2018-07-23-x1233,01_20180723_Exp01_Main_exp_d1_Read 3_Spectrum.tsv,E10,NK-2018-07-23-blank_1,1,250,325,False,20,2,0.8,1,,
NK-2018-07-23-design-3,NK-2018-07-23-x1234,01_20180723_Exp01_Main_exp_d1_Read 3_Spectrum.tsv,E11,NK-2018-07-23-blank_1,1,250,325,False,20,3,0.8,1,,
NK-2018-07-23-design-4,NK-2018-07-23-x1235,01_20180723_Exp01_Main_exp_d1_Read 3_Spectrum.tsv,E12,NK-2018-07-23-blank_1,1,250,325,False,20,4,0.8,1,,
NK-2018-07-23-design-5,NK-2018-07-23-x1236,01_20180723_Exp01_Main_exp_d1_Read 3_Spectrum.tsv,F1,NK-2018-07-23-blank_1,1,250,325,False,20,5,5,1,,
NK-2018-07-23-design-6,NK-2018-07-23-x1237,01_20180723_Exp01_Main_exp_d1_Read 3_Spectrum.tsv,F2,NK-2018-07-23-blank_1,1,250,325,False,20,6,5,1,,
NK-2018-07-23-design-7,NK-2018-07-23-x1238,01_20180723_Exp01_Main_exp_d1_Read 3_Spectrum.tsv,F3,NK-2018-07-23-blank_1,1,250,325,False,20,General center,2,1,,
NK-2018-07-23-design-8,NK-2018-07-23-x1239,01_20180723_Exp01_Main_exp_d1_Read 3_Spectrum.tsv,F4,NK-2018-07-23-blank_1,1,250,325,False,20,Negative Ctrl,1,1,,
NK-2018-07-23-design-9,NK-2018-07-23-x1240,01_20180723_Exp01_Main_exp_d1_Read 3_Spectrum.tsv,F5,NK-2018-07-23-blank_1,1,250,325,False,20,1_2,0.8,1,,
NK-2018-07-23-design-10,NK-2018-07-23-x1241,01_20180723_Exp01_Main_exp_d1_Read 3_Spectrum.tsv,F6,NK-2018-07-23-blank_1,1,250,325,False,20,2_2,0.8,1,,
NK-2018-07-23-design-11,NK-2018-07-23-x1242,01_20180723_Exp01_Main_exp_d1_Read 3_Spectrum.tsv,F7,NK-2018-07-23-blank_1,1,250,325,False,20,3_2,0.8,1,,
NK-2018-07-23-design-12,NK-2018-07-23-x1243,01_20180723_Exp01_Main_exp_d1_Read 3_Spectrum.tsv,F8,NK-2018-07-23-blank_1,1,250,325,False,20,4_2,0.8,1,,
NK-2018-07-23-design-13,NK-2018-07-23-x1244,01_20180723_Exp01_Main_exp_d1_Read 3_Spectrum.tsv,F9,NK-2018-07-23-blank_1,1,250,325,False,20,5_2,5,1,,
NK-2018-07-23-design-14,NK-2018-07-23-x1245,01_20180723_Exp01_Main_exp_d1_Read 3_Spectrum.tsv,F10,NK-2018-07-23-blank_1,1,250,325,False,20,6_2,5,1,,
NK-2018-07-23-design-15,NK-2018-07-23-x1246,01_20180723_Exp01_Main_exp_d1_Read 3_Spectrum.tsv,F11,NK-2018-07-23-blank_1,1,250,325,False,20,General center_2,2,1,,
NK-2018-07-23-design-16,NK-2018-07-23-x1247,01_20180723_Exp01_Main_exp_d1_Read 3_Spectrum.tsv,F12,NK-2018-07-23-blank_1,1,250,325,True,20,Negative Ctrl_2,1,1,,
NK-2018-07-23-design-1,NK-2018-07-23-x1248,01_20180723_Exp01_Main_exp_d1_Read 3_Spectrum.tsv,G1,NK-2018-07-23-blank_1,1,250,325,False,45,1,0.8,1,,
NK-2018-07-23-design-2,NK-2018-07-23-x1249,01_20180723_Exp01_Main_exp_d1_Read 3_Spectrum.tsv,G2,NK-2018-07-23-blank_1,1,250,325,False,45,2,0.8,1,,
NK-2018-07-23-design-3,NK-2018-07-23-x1250,01_20180723_Exp01_Main_exp_d1_Read 3_Spectrum.tsv,G3,NK-2018-07-23-blank_1,1,250,325,False,45,3,0.8,1,,
NK-2018-07-23-design-4,NK-2018-07-23-x1251,01_20180723_Exp01_Main_exp_d1_Read 3_Spectrum.tsv,G4,NK-2018-07-23-blank_1,1,250,325,False,45,4,0.8,1,,
NK-2018-07-23-design-5,NK-2018-07-23-x1252,01_20180723_Exp01_Main_exp_d1_Read 3_Spectrum.tsv,G5,NK-2018-07-23-blank_1,1,250,325,False,45,5,5,1,,
NK-2018-07-23-design-6,NK-2018-07-23-x1253,01_20180723_Exp01_Main_exp_d1_Read 3_Spectrum.tsv,G6,NK-2018-07-23-blank_1,1,250,325,False,45,6,5,1,,
NK-2018-07-23-design-7,NK-2018-07-23-x1254,01_20180723_Exp01_Main_exp_d1_Read 3_Spectrum.tsv,G7,NK-2018-07-23-blank_1,1,250,325,False,45,General center,2,1,,
NK-2018-07-23-design-8,NK-2018-07-23-x1255,01_20180723_Exp01_Main_exp_d1_Read 3_Spectrum.tsv,G8,NK-2018-07-23-blank_1,1,250,325,False,45,Negative Ctrl,1,1,,
NK-2018-07-23-design-9,NK-2018-07-23-x1256,01_20180723_Exp01_Main_exp_d1_Read 3_Spectrum.tsv,G9,NK-2018-07-23-blank_1,1,250,325,False,45,1_2,0.8,1,,
NK-2018-07-23-design-10,NK-2018-07-23-x1257,01_20180723_Exp01_Main_exp_d1_Read 3_Spectrum.tsv,G10,NK-2018-07-23-blank_1,1,250,325,False,45,2_2,0.8,1,,
NK-2018-07-23-design-11,NK-2018-07-23-x1258,01_20180723_Exp01_Main_exp_d1_Read 3_Spectrum.tsv,G11,NK-2018-07-23-blank_1,1,250,325,False,45,3_2,0.8,1,,
NK-2018-07-23-design-12,NK-2018-07-23-x1259,01_20180723_Exp01_Main_exp_d1_Read 3_Spectrum.tsv,G12,NK-2018-07-23-blank_1,1,250,325,False,45,4_2,0.8,1,,
NK-2018-07-23-design-13,NK-2018-07-23-x1260,01_20180723_Exp01_Main_exp_d1_Read 3_Spectrum.tsv,H1,NK-2018-07-23-blank_1,1,250,325,False,45,5_2,5,1,,
NK-2018-07-23-design-14,NK-2018-07-23-x1261,01_20180723_Exp01_Main_exp_d1_Read 3_Spectrum.tsv,H2,NK-2018-07-23-blank_1,1,250,325,False,45,6_2,5,1,,
NK-2018-07-23-design-15,NK-2018-07-23-x1262,01_20180723_Exp01_Main_exp_d1_Read 3_Spectrum.tsv,H3,NK-2018-07-23-blank_1,1,250,325,False,45,General center_2,2,1,,
NK-2018-07-23-design-16,NK-2018-07-23-x1263,01_20180723_Exp01_Main_exp_d1_Read 3_Spectrum.tsv,H4,NK-2018-07-23-blank_1,1,250,325,True,45,Negative Ctrl_2,1,1,,
NK-2018-07-23-design-1,NK-2018-07-23-x1264,01_20180723_Exp01_Main_exp_d1_Read 3_Spectrum.tsv,H5,NK-2018-07-23-blank_1,1,250,325,False,93,1,0.8,1,,
NK-2018-07-23-design-2,NK-2018-07-23-x1265,01_20180723_Exp01_Main_exp_d1_Read 3_Spectrum.tsv,H6,NK-2018-07-23-blank_1,1,250,325,False,93,2,0.8,1,,
NK-2018-07-23-design-3,NK-2018-07-23-x1266,01_20180723_Exp01_Main_exp_d1_Read 3_Spectrum.tsv,H7,NK-2018-07-23-blank_1,1,250,325,False,93,3,0.8,1,,
NK-2018-07-23-design-4,NK-2018-07-23-x1267,01_20180723_Exp01_Main_exp_d1_Read 3_Spectrum.tsv,H8,NK-2018-07-23-blank_1,1,250,325,False,93,4,0.8,1,,
NK-2018-07-23-design-5,NK-2018-07-23-x1268,01_20180723_Exp01_Main_exp_d1_Read 3_Spectrum.tsv,H9,NK-2018-07-23-blank_1,1,250,325,False,93,5,5,1,,
NK-2018-07-23-design-6,NK-2018-07-23-x1269,01_20180723_Exp01_Main_exp_d1_Read 3_Spectrum.tsv,H10,NK-2018-07-23-blank_1,1,250,325,False,93,6,5,1,,
NK-2018-07-23-design-7,NK-2018-07-23-x1270,01_20180723_Exp01_Main_exp_d1_Read 3_Spectrum.tsv,H11,NK-2018-07-23-blank_1,1,250,325,False,93,General center,2,1,,
NK-2018-07-23-design-8,NK-2018-07-23-x1271,01_20180723_Exp01_Main_exp_d1_Read 3_Spectrum.tsv,H12,NK-2018-07-23-blank_1,1,250,325,False,93,Negative Ctrl,1,1,,
NK-2018-07-23-design-9,NK-2018-07-23-x1272,02_20180723_Exp01_Main_exp_d1_Read 3_Spectrum.tsv,A1,NK-2018-07-23-blank_1,1,250,325,False,93,1_2,0.8,1,,
NK-2018-07-23-design-10,NK-2018-07-23-x1273,02_20180723_Exp01_Main_exp_d1_Read 3_Spectrum.tsv,A2,NK-2018-07-23-blank_1,1,250,325,False,93,2_2,0.8,1,,
NK-2018-07-23-design-11,NK-2018-07-23-x1274,02_20180723_Exp01_Main_exp_d1_Read 3_Spectrum.tsv,A3,NK-2018-07-23-blank_1,1,250,325,False,93,3_2,0.8,1,,
NK-2018-07-23-design-12,NK-2018-07-23-x1275,02_20180723_Exp01_Main_exp_d1_Read 3_Spectrum.tsv,A4,NK-2018-07-23-blank_1,1,250,325,False,93,4_2,0.8,1,,
NK-2018-07-23-design-13,NK-2018-07-23-x1276,02_20180723_Exp01_Main_exp_d1_Read 3_Spectrum.tsv,A5,NK-2018-07-23-blank_1,1,250,325,False,93,5_2,5,1,,
NK-2018-07-23-design-14,NK-2018-07-23-x1277,02_20180723_Exp01_Main_exp_d1_Read 3_Spectrum.tsv,A6,NK-2018-07-23-blank_1,1,250,325,False,93,6_2,5,1,,
NK-2018-07-23-design-15,NK-2018-07-23-x1278,02_20180723_Exp01_Main_exp_d1_Read 3_Spectrum.tsv,A7,NK-2018-07-23-blank_1,1,250,325,False,93,General center_2,2,1,,
NK-2018-07-23-design-16,NK-2018-07-23-x1279,02_20180723_Exp01_Main_exp_d1_Read 3_Spectrum.tsv,A8,NK-2018-07-23-blank_1,1,250,325,True,93,Negative Ctrl_2,1,1,,
NK-2018-07-23-design-1,NK-2018-07-23-x1280,02_20180723_Exp01_Main_exp_d1_Read 3_Spectrum.tsv,A9,NK-2018-07-23-blank_1,1,250,325,False,150,1,0.8,1,,
NK-2018-07-23-design-2,NK-2018-07-23-x1281,02_20180723_Exp01_Main_exp_d1_Read 3_Spectrum.tsv,A10,NK-2018-07-23-blank_1,1,250,325,False,150,2,0.8,1,,
NK-2018-07-23-design-3,NK-2018-07-23-x1282,02_20180723_Exp01_Main_exp_d1_Read 3_Spectrum.tsv,A11,NK-2018-07-23-blank_1,1,250,325,False,150,3,0.8,1,,
NK-2018-07-23-design-4,NK-2018-07-23-x1283,02_20180723_Exp01_Main_exp_d1_Read 3_Spectrum.tsv,A12,NK-2018-07-23-blank_1,1,250,325,False,150,4,0.8,1,,
NK-2018-07-23-design-5,NK-2018-07-23-x1284,02_20180723_Exp01_Main_exp_d1_Read 3_Spectrum.tsv,B1,NK-2018-07-23-blank_1,1,250,325,False,150,5,5,1,,
NK-2018-07-23-design-6,NK-2018-07-23-x1285,02_20180723_Exp01_Main_exp_d1_Read 3_Spectrum.tsv,B2,NK-2018-07-23-blank_1,1,250,325,False,150,6,5,1,,
NK-2018-07-23-design-7,NK-2018-07-23-x1286,02_20180723_Exp01_Main_exp_d1_Read 3_Spectrum.tsv,B3,NK-2018-07-23-blank_1,1,250,325,False,150,General center,2,1,,
NK-2018-07-23-design-8,NK-2018-07-23-x1287,02_20180723_Exp01_Main_exp_d1_Read 3_Spectrum.tsv,B4,NK-2018-07-23-blank_1,1,250,325,False,150,Negative Ctrl,1,1,,
NK-2018-07-23-design-9,NK-2018-07-23-x1288,02_20180723_Exp01_Main_exp_d1_Read 3_Spectrum.tsv,B5,NK-2018-07-23-blank_1,1,250,325,False,150,1_2,0.8,1,,
NK-2018-07-23-design-10,NK-2018-07-23-x1289,02_20180723_Exp01_Main_exp_d1_Read 3_Spectrum.tsv,B6,NK-2018-07-23-blank_1,1,250,325,False,150,2_2,0.8,1,,
NK-2018-07-23-design-11,NK-2018-07-23-x1290,02_20180723_Exp01_Main_exp_d1_Read 3_Spectrum.tsv,B7,NK-2018-07-23-blank_1,1,250,325,False,150,3_2,0.8,1,,
NK-2018-07-23-design-12,NK-2018-07-23-x1291,02_20180723_Exp01_Main_exp_d1_Read 3_Spectrum.tsv,B8,NK-2018-07-23-blank_1,1,250,325,False,150,4_2,0.8,1,,
NK-2018-07-23-design-13,NK-2018-07-23-x1292,02_20180723_Exp01_Main_exp_d1_Read 3_Spectrum.tsv,B9,NK-2018-07-23-blank_1,1,250,325,False,150,5_2,5,1,,
NK-2018-07-23-design-14,NK-2018-07-23-x1293,02_20180723_Exp01_Main_exp_d1_Read 3_Spectrum.tsv,B10,NK-2018-07-23-blank_1,1,250,325,False,150,6_2,5,1,,
NK-2018-07-23-design-15,NK-2018-07-23-x1294,02_20180723_Exp01_Main_exp_d1_Read 3_Spectrum.tsv,B11,NK-2018-07-23-blank_1,1,250,325,False,150,General center_2,2,1,,
NK-2018-07-23-design-16,NK-2018-07-23-x1295,02_20180723_Exp01_Main_exp_d1_Read 3_Spectrum.tsv,B12,NK-2018-07-23-blank_1,1,250,325,True,150,Negative Ctrl_2,1,1,,
NK-2018-07-23-design-1,NK-2018-07-23-x1296,02_20180723_Exp01_Main_exp_d1_Read 3_Spectrum.tsv,C1,NK-2018-07-23-blank_1,1,250,325,False,217,1,0.8,1,,
NK-2018-07-23-design-2,NK-2018-07-23-x1297,02_20180723_Exp01_Main_exp_d1_Read 3_Spectrum.tsv,C2,NK-2018-07-23-blank_1,1,250,325,False,217,2,0.8,1,,
NK-2018-07-23-design-3,NK-2018-07-23-x1298,02_20180723_Exp01_Main_exp_d1_Read 3_Spectrum.tsv,C3,NK-2018-07-23-blank_1,1,250,325,False,217,3,0.8,1,,
NK-2018-07-23-design-4,NK-2018-07-23-x1299,02_20180723_Exp01_Main_exp_d1_Read 3_Spectrum.tsv,C4,NK-2018-07-23-blank_1,1,250,325,False,217,4,0.8,1,,
NK-2018-07-23-design-5,NK-2018-07-23-x1300,02_20180723_Exp01_Main_exp_d1_Read 3_Spectrum.tsv,C5,NK-2018-07-23-blank_1,1,250,325,False,217,5,5,1,,
NK-2018-07-23-design-6,NK-2018-07-23-x1301,02_20180723_Exp01_Main_exp_d1_Read 3_Spectrum.tsv,C6,NK-2018-07-23-blank_1,1,250,325,False,217,6,5,1,,
NK-2018-07-23-design-7,NK-2018-07-23-x1302,02_20180723_Exp01_Main_exp_d1_Read 3_Spectrum.tsv,C7,NK-2018-07-23-blank_1,1,250,325,False,217,General center,2,1,,
NK-2018-07-23-design-8,NK-2018-07-23-x1303,02_20180723_Exp01_Main_exp_d1_Read 3_Spectrum.tsv,C8,NK-2018-07-23-blank_1,1,250,325,False,217,Negative Ctrl,1,1,,
NK-2018-07-23-design-9,NK-2018-07-23-x1304,02_20180723_Exp01_Main_exp_d1_Read 3_Spectrum.tsv,C9,NK-2018-07-23-blank_1,1,250,325,False,217,1_2,0.8,1,,
NK-2018-07-23-design-10,NK-2018-07-23-x1305,02_20180723_Exp01_Main_exp_d1_Read 3_Spectrum.tsv,C10,NK-2018-07-23-blank_1,1,250,325,False,217,2_2,0.8,1,,
NK-2018-07-23-design-11,NK-2018-07-23-x1306,02_20180723_Exp01_Main_exp_d1_Read 3_Spectrum.tsv,C11,NK-2018-07-23-blank_1,1,250,325,False,217,3_2,0.8,1,,
NK-2018-07-23-design-12,NK-2018-07-23-x1307,02_20180723_Exp01_Main_exp_d1_Read 3_Spectrum.tsv,C12,NK-2018-07-23-blank_1,1,250,325,False,217,4_2,0.8,1,,
NK-2018-07-23-design-13,NK-2018-07-23-x1308,03_20180723_Exp01_Main_exp_d1_Read 3_Spectrum.tsv,D1,NK-2018-07-23-blank_1,1,250,325,False,217,5_2,5,1,,
NK-2018-07-23-design-14,NK-2018-07-23-x1309,03_20180723_Exp01_Main_exp_d1_Read 3_Spectrum.tsv,D2,NK-2018-07-23-blank_1,1,250,325,False,217,6_2,5,1,,
NK-2018-07-23-design-15,NK-2018-07-23-x1310,03_20180723_Exp01_Main_exp_d1_Read 3_Spectrum.tsv,D3,NK-2018-07-23-blank_1,1,250,325,False,217,General center_2,2,1,,
NK-2018-07-23-design-16,NK-2018-07-23-x1311,03_20180723_Exp01_Main_exp_d1_Read 3_Spectrum.tsv,D4,NK-2018-07-23-blank_1,1,250,325,True,217,Negative Ctrl_2,1,1,,
NK-2018-07-23-design-1,NK-2018-07-23-x1312,04_20180723_Exp01_Main_exp_d1_Read 3_Spectrum.tsv,D5,NK-2018-07-23-blank_1,1,250,325,False,287,1,0.8,1,,
NK-2018-07-23-design-2,NK-2018-07-23-x1313,04_20180723_Exp01_Main_exp_d1_Read 3_Spectrum.tsv,D6,NK-2018-07-23-blank_1,1,250,325,False,287,2,0.8,1,,
NK-2018-07-23-design-3,NK-2018-07-23-x1314,04_20180723_Exp01_Main_exp_d1_Read 3_Spectrum.tsv,D7,NK-2018-07-23-blank_1,1,250,325,False,287,3,0.8,1,,
NK-2018-07-23-design-4,NK-2018-07-23-x1315,04_20180723_Exp01_Main_exp_d1_Read 3_Spectrum.tsv,D8,NK-2018-07-23-blank_1,1,250,325,False,287,4,0.8,1,,
NK-2018-07-23-design-5,NK-2018-07-23-x1316,04_20180723_Exp01_Main_exp_d1_Read 3_Spectrum.tsv,D9,NK-2018-07-23-blank_1,1,250,325,False,287,5,5,1,,
NK-2018-07-23-design-6,NK-2018-07-23-x1317,04_20180723_Exp01_Main_exp_d1_Read 3_Spectrum.tsv,D10,NK-2018-07-23-blank_1,1,250,325,False,287,6,5,1,,
NK-2018-07-23-design-7,NK-2018-07-23-x1318,04_20180723_Exp01_Main_exp_d1_Read 3_Spectrum.tsv,D11,NK-2018-07-23-blank_1,1,250,325,False,287,General center,2,1,,
NK-2018-07-23-design-8,NK-2018-07-23-x1319,04_20180723_Exp01_Main_exp_d1_Read 3_Spectrum.tsv,D12,NK-2018-07-23-blank_1,1,250,325,False,287,Negative Ctrl,1,1,,
NK-2018-07-23-design-9,NK-2018-07-23-x1320,05_20180723_Exp01_Main_exp_d1_Read 3_Spectrum.tsv,E1,NK-2018-07-23-blank_1,1,250,325,False,287,1_2,0.8,1,,
NK-2018-07-23-design-10,NK-2018-07-23-x1321,05_20180723_Exp01_Main_exp_d1_Read 3_Spectrum.tsv,E2,NK-2018-07-23-blank_1,1,250,325,False,287,2_2,0.8,1,,
NK-2018-07-23-design-11,NK-2018-07-23-x1322,05_20180723_Exp01_Main_exp_d1_Read 3_Spectrum.tsv,E3,NK-2018-07-23-blank_1,1,250,325,False,287,3_2,0.8,1,,
NK-2018-07-23-design-12,NK-2018-07-23-x1323,05_20180723_Exp01_Main_exp_d1_Read 3_Spectrum.tsv,E4,NK-2018-07-23-blank_1,1,250,325,False,287,4_2,0.8,1,,
NK-2018-07-23-design-13,NK-2018-07-23-x1324,05_20180723_Exp01_Main_exp_d1_Read 3_Spectrum.tsv,E5,NK-2018-07-23-blank_1,1,250,325,False,287,5_2,5,1,,
NK-2018-07-23-design-14,NK-2018-07-23-x1325,05_20180723_Exp01_Main_exp_d1_Read 3_Spectrum.tsv,E6,NK-2018-07-23-blank_1,1,250,325,False,287,6_2,5,1,,
NK-2018-07-23-design-15,NK-2018-07-23-x1326,05_20180723_Exp01_Main_exp_d1_Read 3_Spectrum.tsv,E7,NK-2018-07-23-blank_1,1,250,325,False,287,General center_2,2,1,,
NK-2018-07-23-design-16,NK-2018-07-23-x1327,05_20180723_Exp01_Main_exp_d1_Read 3_Spectrum.tsv,E8,NK-2018-07-23-blank_1,1,250,325,True,287,Negative Ctrl_2,1,1,,
NK-2018-07-23-design-1,NK-2018-07-23-x1328,07_20180723_Exp01_Main_exp_d1_Read 3_Spectrum.tsv,E11,NK-2018-07-23-blank_1,1,250,325,False,1440,1,0.8,1,,
NK-2018-07-23-design-2,NK-2018-07-23-x1329,07_20180723_Exp01_Main_exp_d1_Read 3_Spectrum.tsv,E12,NK-2018-07-23-blank_1,1,250,325,False,1440,2,0.8,1,,
NK-2018-07-23-design-3,NK-2018-07-23-x1330,08_20180723_Exp01_Main_exp_d1_Read 3_Spectrum.tsv,F1,NK-2018-07-23-blank_1,1,250,325,False,1440,3,0.8,1,,
NK-2018-07-23-design-4,NK-2018-07-23-x1331,08_20180723_Exp01_Main_exp_d1_Read 3_Spectrum.tsv,F2,NK-2018-07-23-blank_1,1,250,325,False,1440,4,0.8,1,,
NK-2018-07-23-design-5,NK-2018-07-23-x1332,08_20180723_Exp01_Main_exp_d1_Read 3_Spectrum.tsv,F3,NK-2018-07-23-blank_1,1,250,325,False,1440,5,5,1,,
NK-2018-07-23-design-6,NK-2018-07-23-x1333,08_20180723_Exp01_Main_exp_d1_Read 3_Spectrum.tsv,F4,NK-2018-07-23-blank_1,1,250,325,False,1440,6,5,1,,
NK-2018-07-23-design-7,NK-2018-07-23-x1334,08_20180723_Exp01_Main_exp_d1_Read 3_Spectrum.tsv,F5,NK-2018-07-23-blank_1,1,250,325,False,1440,General center,2,1,,
NK-2018-07-23-design-8,NK-2018-07-23-x1335,08_20180723_Exp01_Main_exp_d1_Read 3_Spectrum.tsv,F6,NK-2018-07-23-blank_1,1,250,325,False,1440,Negative Ctrl,1,1,,
NK-2018-07-23-design-9,NK-2018-07-23-x1336,08_20180723_Exp01_Main_exp_d1_Read 3_Spectrum.tsv,F7,NK-2018-07-23-blank_1,1,250,325,False,1440,1_2,0.8,1,,
NK-2018-07-23-design-10,NK-2018-07-23-x1337,08_20180723_Exp01_Main_exp_d1_Read 3_Spectrum.tsv,F8,NK-2018-07-23-blank_1,1,250,325,False,1440,2_2,0.8,1,,
NK-2018-07-23-design-11,NK-2018-07-23-x1338,08_20180723_Exp01_Main_exp_d1_Read 3_Spectrum.tsv,F9,NK-2018-07-23-blank_1,1,250,325,False,1440,3_2,0.8,1,,
NK-2018-07-23-design-12,NK-2018-07-23-x1339,08_20180723_Exp01_Main_exp_d1_Read 3_Spectrum.tsv,F10,NK-2018-07-23-blank_1,1,250,325,False,1440,4_2,0.8,1,,
NK-2018-07-23-design-13,NK-2018-07-23-x1340,08_20180723_Exp01_Main_exp_d1_Read 3_Spectrum.tsv,F11,NK-2018-07-23-blank_1,1,250,325,False,1440,5_2,5,1,,
NK-2018-07-23-design-14,NK-2018-07-23-x1341,08_20180723_Exp01_Main_exp_d1_Read 3_Spectrum.tsv,F12,NK-2018-07-23-blank_1,1,250,325,False,1440,6_2,5,1,,
NK-2018-07-23-design-15,NK-2018-07-23-x1342,09_20180723_Exp01_Main_exp_d1_Read 3_Spectrum.tsv,G1,NK-2018-07-23-blank_1,1,250,325,False,1440,General center_2,2,1,,
NK-2018-07-23-design-16,NK-2018-07-23-x1343,09_20180723_Exp01_Main_exp_d1_Read 3_Spectrum.tsv,G2,NK-2018-07-23-blank_1,1,250,325,True,1440,Negative Ctrl_2,1,1,,
,,,,,,,,,,,,,,
NK-2018-07-23-design-17,NK-2018-07-24-x1359,01_20180724_Exp01_Main_exp_d2_Read 3_Spectrum.tsv,G3,NK-2018-07-24-blank_1,1,250,325,False,0,7,5,1,,
NK-2018-07-23-design-18,NK-2018-07-24-x1360,01_20180724_Exp01_Main_exp_d2_Read 3_Spectrum.tsv,G4,NK-2018-07-24-blank_1,1,250,325,False,0,8,5,1,,
NK-2018-07-23-design-19,NK-2018-07-24-x1361,01_20180724_Exp01_Main_exp_d2_Read 3_Spectrum.tsv,G5,NK-2018-07-24-blank_1,1,250,325,False,0,9,0.8,1,,
NK-2018-07-23-design-20,NK-2018-07-24-x1362,01_20180724_Exp01_Main_exp_d2_Read 3_Spectrum.tsv,G6,NK-2018-07-24-blank_1,1,250,325,False,0,10,5,1,,
NK-2018-07-23-design-21,NK-2018-07-24-x1363,01_20180724_Exp01_Main_exp_d2_Read 3_Spectrum.tsv,G7,NK-2018-07-24-blank_1,1,250,325,False,0,11,0.8,1,,
NK-2018-07-23-design-22,NK-2018-07-24-x1364,01_20180724_Exp01_Main_exp_d2_Read 3_Spectrum.tsv,G8,NK-2018-07-24-blank_1,1,250,325,False,0,12,5,1,,
NK-2018-07-23-design-23,NK-2018-07-24-x1365,01_20180724_Exp01_Main_exp_d2_Read 3_Spectrum.tsv,G9,NK-2018-07-24-blank_1,1,250,325,False,0,General center,2,1,,
NK-2018-07-23-design-24,NK-2018-07-24-x1366,01_20180724_Exp01_Main_exp_d2_Read 3_Spectrum.tsv,G10,NK-2018-07-24-blank_1,1,250,325,False,0,Negative Ctrl,1,1,,
NK-2018-07-23-design-25,NK-2018-07-24-x1367,01_20180724_Exp01_Main_exp_d2_Read 3_Spectrum.tsv,G11,NK-2018-07-24-blank_1,1,250,325,False,0,7_2,5,1,,
NK-2018-07-23-design-26,NK-2018-07-24-x1368,01_20180724_Exp01_Main_exp_d2_Read 3_Spectrum.tsv,G12,NK-2018-07-24-blank_1,1,250,325,False,0,8_2,5,1,,
NK-2018-07-23-design-27,NK-2018-07-24-x1369,01_20180724_Exp01_Main_exp_d2_Read 3_Spectrum.tsv,H1,NK-2018-07-24-blank_1,1,250,325,False,0,9_2,0.8,1,,
NK-2018-07-23-design-28,NK-2018-07-24-x1370,01_20180724_Exp01_Main_exp_d2_Read 3_Spectrum.tsv,H2,NK-2018-07-24-blank_1,1,250,325,False,0,10_2,5,1,,
NK-2018-07-23-design-29,NK-2018-07-24-x1371,01_20180724_Exp01_Main_exp_d2_Read 3_Spectrum.tsv,H3,NK-2018-07-24-blank_1,1,250,325,False,0,11_2,0.8,1,,
NK-2018-07-23-design-30,NK-2018-07-24-x1372,01_20180724_Exp01_Main_exp_d2_Read 3_Spectrum.tsv,H4,NK-2018-07-24-blank_1,1,250,325,False,0,12_2,5,1,,
NK-2018-07-23-design-31,NK-2018-07-24-x1373,01_20180724_Exp01_Main_exp_d2_Read 3_Spectrum.tsv,H5,NK-2018-07-24-blank_1,1,250,325,False,0,General center_2,2,1,,
NK-2018-07-23-design-32,NK-2018-07-24-x1374,01_20180724_Exp01_Main_exp_d2_Read 3_Spectrum.tsv,H6,NK-2018-07-24-blank_1,1,250,325,True,0,Negative Ctrl_2,1,1,,
NK-2018-07-23-design-blank,NK-2018-07-24-blank_1,01_20180724_Exp01_Main_exp_d2_Read 3_Spectrum.tsv,H7,NK-2018-07-24-blank_1,1,250,325,False,,blank,0,1,,
NK-2018-07-23-design-blank,NK-2018-07-24-blank_2,01_20180724_Exp01_Main_exp_d2_Read 3_Spectrum.tsv,H8,NK-2018-07-24-blank_1,1,250,325,False,,blank,0,1,,
NK-2018-07-23-design-17,NK-2018-07-24-x1375,02_20180724_Exp01_Main_exp_d2_Read 3_Spectrum.tsv,A1,NK-2018-07-24-blank_1,1,250,325,False,20,7,5,1,,
NK-2018-07-23-design-18,NK-2018-07-24-x1376,02_20180724_Exp01_Main_exp_d2_Read 3_Spectrum.tsv,A2,NK-2018-07-24-blank_1,1,250,325,False,20,8,5,1,,
NK-2018-07-23-design-19,NK-2018-07-24-x1377,02_20180724_Exp01_Main_exp_d2_Read 3_Spectrum.tsv,A3,NK-2018-07-24-blank_1,1,250,325,False,20,9,0.8,1,,
NK-2018-07-23-design-20,NK-2018-07-24-x1378,02_20180724_Exp01_Main_exp_d2_Read 3_Spectrum.tsv,A4,NK-2018-07-24-blank_1,1,250,325,False,20,10,5,1,,
NK-2018-07-23-design-21,NK-2018-07-24-x1379,02_20180724_Exp01_Main_exp_d2_Read 3_Spectrum.tsv,A5,NK-2018-07-24-blank_1,1,250,325,False,20,11,0.8,1,,
NK-2018-07-23-design-22,NK-2018-07-24-x1380,02_20180724_Exp01_Main_exp_d2_Read 3_Spectrum.tsv,A6,NK-2018-07-24-blank_1,1,250,325,False,20,12,5,1,,
NK-2018-07-23-design-23,NK-2018-07-24-x1381,02_20180724_Exp01_Main_exp_d2_Read 3_Spectrum.tsv,A7,NK-2018-07-24-blank_1,1,250,325,False,20,General center,2,1,,
NK-2018-07-23-design-24,NK-2018-07-24-x1382,02_20180724_Exp01_Main_exp_d2_Read 3_Spectrum.tsv,A8,NK-2018-07-24-blank_1,1,250,325,False,20,Negative Ctrl,1,1,,
NK-2018-07-23-design-25,NK-2018-07-24-x1383,02_20180724_Exp01_Main_exp_d2_Read 3_Spectrum.tsv,A9,NK-2018-07-24-blank_1,1,250,325,False,20,7_2,5,1,,
NK-2018-07-23-design-26,NK-2018-07-24-x1384,02_20180724_Exp01_Main_exp_d2_Read 3_Spectrum.tsv,A10,NK-2018-07-24-blank_1,1,250,325,False,20,8_2,5,1,,
NK-2018-07-23-design-27,NK-2018-07-24-x1385,02_20180724_Exp01_Main_exp_d2_Read 3_Spectrum.tsv,A11,NK-2018-07-24-blank_1,1,250,325,False,20,9_2,0.8,1,,
NK-2018-07-23-design-28,NK-2018-07-24-x1386,02_20180724_Exp01_Main_exp_d2_Read 3_Spectrum.tsv,A12,NK-2018-07-24-blank_1,1,250,325,False,20,10_2,5,1,,
NK-2018-07-23-design-29,NK-2018-07-24-x1387,02_20180724_Exp01_Main_exp_d2_Read 3_Spectrum.tsv,B1,NK-2018-07-24-blank_1,1,250,325,False,20,11_2,0.8,1,,
NK-2018-07-23-design-30,NK-2018-07-24-x1388,02_20180724_Exp01_Main_exp_d2_Read 3_Spectrum.tsv,B2,NK-2018-07-24-blank_1,1,250,325,False,20,12_2,5,1,,
NK-2018-07-23-design-31,NK-2018-07-24-x1389,02_20180724_Exp01_Main_exp_d2_Read 3_Spectrum.tsv,B3,NK-2018-07-24-blank_1,1,250,325,False,20,General center_2,2,1,,
NK-2018-07-23-design-32,NK-2018-07-24-x1390,02_20180724_Exp01_Main_exp_d2_Read 3_Spectrum.tsv,B4,NK-2018-07-24-blank_1,1,250,325,True,20,Negative Ctrl_2,1,1,,
NK-2018-07-23-design-17,NK-2018-07-24-x1391,02_20180724_Exp01_Main_exp_d2_Read 3_Spectrum.tsv,B5,NK-2018-07-24-blank_1,1,250,325,False,45,7,5,1,,
NK-2018-07-23-design-18,NK-2018-07-24-x1392,02_20180724_Exp01_Main_exp_d2_Read 3_Spectrum.tsv,B6,NK-2018-07-24-blank_1,1,250,325,False,45,8,5,1,,
NK-2018-07-23-design-19,NK-2018-07-24-x1393,02_20180724_Exp01_Main_exp_d2_Read 3_Spectrum.tsv,B7,NK-2018-07-24-blank_1,1,250,325,False,45,9,0.8,1,,
NK-2018-07-23-design-20,NK-2018-07-24-x1394,02_20180724_Exp01_Main_exp_d2_Read 3_Spectrum.tsv,B8,NK-2018-07-24-blank_1,1,250,325,False,45,10,5,1,,
NK-2018-07-23-design-21,NK-2018-07-24-x1395,02_20180724_Exp01_Main_exp_d2_Read 3_Spectrum.tsv,B9,NK-2018-07-24-blank_1,1,250,325,False,45,11,0.8,1,,
NK-2018-07-23-design-22,NK-2018-07-24-x1396,02_20180724_Exp01_Main_exp_d2_Read 3_Spectrum.tsv,B10,NK-2018-07-24-blank_1,1,250,325,False,45,12,5,1,,
NK-2018-07-23-design-23,NK-2018-07-24-x1397,02_20180724_Exp01_Main_exp_d2_Read 3_Spectrum.tsv,B11,NK-2018-07-24-blank_1,1,250,325,False,45,General center,2,1,,
NK-2018-07-23-design-24,NK-2018-07-24-x1398,02_20180724_Exp01_Main_exp_d2_Read 3_Spectrum.tsv,B12,NK-2018-07-24-blank_1,1,250,325,False,45,Negative Ctrl,1,1,,
NK-2018-07-23-design-25,NK-2018-07-24-x1399,02_20180724_Exp01_Main_exp_d2_Read 3_Spectrum.tsv,C1,NK-2018-07-24-blank_1,1,250,325,False,45,7_2,5,1,,
NK-2018-07-23-design-26,NK-2018-07-24-x1400,02_20180724_Exp01_Main_exp_d2_Read 3_Spectrum.tsv,C2,NK-2018-07-24-blank_1,1,250,325,False,45,8_2,5,1,,
NK-2018-07-23-design-27,NK-2018-07-24-x1401,02_20180724_Exp01_Main_exp_d2_Read 3_Spectrum.tsv,C3,NK-2018-07-24-blank_1,1,250,325,False,45,9_2,0.8,1,,
NK-2018-07-23-design-28,NK-2018-07-24-x1402,02_20180724_Exp01_Main_exp_d2_Read 3_Spectrum.tsv,C4,NK-2018-07-24-blank_1,1,250,325,False,45,10_2,5,1,,
NK-2018-07-23-design-29,NK-2018-07-24-x1403,02_20180724_Exp01_Main_exp_d2_Read 3_Spectrum.tsv,C5,NK-2018-07-24-blank_1,1,250,325,False,45,11_2,0.8,1,,
NK-2018-07-23-design-30,NK-2018-07-24-x1404,02_20180724_Exp01_Main_exp_d2_Read 3_Spectrum.tsv,C6,NK-2018-07-24-blank_1,1,250,325,False,45,12_2,5,1,,
NK-2018-07-23-design-31,NK-2018-07-24-x1405,02_20180724_Exp01_Main_exp_d2_Read 3_Spectrum.tsv,C7,NK-2018-07-24-blank_1,1,250,325,False,45,General center_2,2,1,,
NK-2018-07-23-design-32,NK-2018-07-24-x1406,02_20180724_Exp01_Main_exp_d2_Read 3_Spectrum.tsv,C8,NK-2018-07-24-blank_1,1,250,325,True,45,Negative Ctrl_2,1,1,,
NK-2018-07-23-design-17,NK-2018-07-24-x1407,02_20180724_Exp01_Main_exp_d2_Read 3_Spectrum.tsv,C9,NK-2018-07-24-blank_1,1,250,325,False,90,7,5,1,,
NK-2018-07-23-design-18,NK-2018-07-24-x1408,02_20180724_Exp01_Main_exp_d2_Read 3_Spectrum.tsv,C10,NK-2018-07-24-blank_1,1,250,325,False,90,8,5,1,,
NK-2018-07-23-design-19,NK-2018-07-24-x1409,02_20180724_Exp01_Main_exp_d2_Read 3_Spectrum.tsv,C11,NK-2018-07-24-blank_1,1,250,325,False,90,9,0.8,1,,
NK-2018-07-23-design-20,NK-2018-07-24-x1410,02_20180724_Exp01_Main_exp_d2_Read 3_Spectrum.tsv,C12,NK-2018-07-24-blank_1,1,250,325,False,90,10,5,1,,
NK-2018-07-23-design-21,NK-2018-07-24-x1411,02_20180724_Exp01_Main_exp_d2_Read 3_Spectrum.tsv,D1,NK-2018-07-24-blank_1,1,250,325,False,90,11,0.8,1,,
NK-2018-07-23-design-22,NK-2018-07-24-x1412,02_20180724_Exp01_Main_exp_d2_Read 3_Spectrum.tsv,D2,NK-2018-07-24-blank_1,1,250,325,False,90,12,5,1,,
NK-2018-07-23-design-23,NK-2018-07-24-x1413,02_20180724_Exp01_Main_exp_d2_Read 3_Spectrum.tsv,D3,NK-2018-07-24-blank_1,1,250,325,False,90,General center,2,1,,
NK-2018-07-23-design-24,NK-2018-07-24-x1414,02_20180724_Exp01_Main_exp_d2_Read 3_Spectrum.tsv,D4,NK-2018-07-24-blank_1,1,250,325,False,90,Negative Ctrl,1,1,,
NK-2018-07-23-design-25,NK-2018-07-24-x1415,02_20180724_Exp01_Main_exp_d2_Read 3_Spectrum.tsv,D5,NK-2018-07-24-blank_1,1,250,325,False,90,7_2,5,1,,
NK-2018-07-23-design-26,NK-2018-07-24-x1416,02_20180724_Exp01_Main_exp_d2_Read 3_Spectrum.tsv,D6,NK-2018-07-24-blank_1,1,250,325,False,90,8_2,5,1,,
NK-2018-07-23-design-27,NK-2018-07-24-x1417,02_20180724_Exp01_Main_exp_d2_Read 3_Spectrum.tsv,D7,NK-2018-07-24-blank_1,1,250,325,False,90,9_2,0.8,1,,
NK-2018-07-23-design-28,NK-2018-07-24-x1418,02_20180724_Exp01_Main_exp_d2_Read 3_Spectrum.tsv,D8,NK-2018-07-24-blank_1,1,250,325,False,90,10_2,5,1,,
NK-2018-07-23-design-29,NK-2018-07-24-x1419,02_20180724_Exp01_Main_exp_d2_Read 3_Spectrum.tsv,D9,NK-2018-07-24-blank_1,1,250,325,False,90,11_2,0.8,1,,
NK-2018-07-23-design-30,NK-2018-07-24-x1420,02_20180724_Exp01_Main_exp_d2_Read 3_Spectrum.tsv,D10,NK-2018-07-24-blank_1,1,250,325,False,90,12_2,5,1,,
NK-2018-07-23-design-31,NK-2018-07-24-x1421,02_20180724_Exp01_Main_exp_d2_Read 3_Spectrum.tsv,D11,NK-2018-07-24-blank_1,1,250,325,False,90,General center_2,2,1,,
NK-2018-07-23-design-32,NK-2018-07-24-x1422,02_20180724_Exp01_Main_exp_d2_Read 3_Spectrum.tsv,D12,NK-2018-07-24-blank_1,1,250,325,True,90,Negative Ctrl_2,1,1,,
NK-2018-07-23-design-17,NK-2018-07-24-x1423,02_20180724_Exp01_Main_exp_d2_Read 3_Spectrum.tsv,E1,NK-2018-07-24-blank_1,1,250,325,False,150,7,5,1,,
NK-2018-07-23-design-18,NK-2018-07-24-x1424,02_20180724_Exp01_Main_exp_d2_Read 3_Spectrum.tsv,E2,NK-2018-07-24-blank_1,1,250,325,False,150,8,5,1,,
NK-2018-07-23-design-19,NK-2018-07-24-x1425,02_20180724_Exp01_Main_exp_d2_Read 3_Spectrum.tsv,E3,NK-2018-07-24-blank_1,1,250,325,False,150,9,0.8,1,,
NK-2018-07-23-design-20,NK-2018-07-24-x1426,02_20180724_Exp01_Main_exp_d2_Read 3_Spectrum.tsv,E4,NK-2018-07-24-blank_1,1,250,325,False,150,10,5,1,,
NK-2018-07-23-design-21,NK-2018-07-24-x1427,02_20180724_Exp01_Main_exp_d2_Read 3_Spectrum.tsv,E5,NK-2018-07-24-blank_1,1,250,325,False,150,11,0.8,1,,
NK-2018-07-23-design-22,NK-2018-07-24-x1428,02_20180724_Exp01_Main_exp_d2_Read 3_Spectrum.tsv,E6,NK-2018-07-24-blank_1,1,250,325,False,150,12,5,1,,
NK-2018-07-23-design-23,NK-2018-07-24-x1429,02_20180724_Exp01_Main_exp_d2_Read 3_Spectrum.tsv,E7,NK-2018-07-24-blank_1,1,250,325,False,150,General center,2,1,,
NK-2018-07-23-design-24,NK-2018-07-24-x1430,02_20180724_Exp01_Main_exp_d2_Read 3_Spectrum.tsv,E8,NK-2018-07-24-blank_1,1,250,325,False,150,Negative Ctrl,1,1,,
NK-2018-07-23-design-25,NK-2018-07-24-x1431,02_20180724_Exp01_Main_exp_d2_Read 3_Spectrum.tsv,E9,NK-2018-07-24-blank_1,1,250,325,False,150,7_2,5,1,,
NK-2018-07-23-design-26,NK-2018-07-24-x1432,02_20180724_Exp01_Main_exp_d2_Read 3_Spectrum.tsv,E10,NK-2018-07-24-blank_1,1,250,325,False,150,8_2,5,1,,
NK-2018-07-23-design-27,NK-2018-07-24-x1433,02_20180724_Exp01_Main_exp_d2_Read 3_Spectrum.tsv,E11,NK-2018-07-24-blank_1,1,250,325,False,150,9_2,0.8,1,,
NK-2018-07-23-design-28,NK-2018-07-24-x1434,02_20180724_Exp01_Main_exp_d2_Read 3_Spectrum.tsv,E12,NK-2018-07-24-blank_1,1,250,325,False,150,10_2,5,1,,
NK-2018-07-23-design-29,NK-2018-07-24-x1435,02_20180724_Exp01_Main_exp_d2_Read 3_Spectrum.tsv,F1,NK-2018-07-24-blank_1,1,250,325,False,150,11_2,0.8,1,,
NK-2018-07-23-design-30,NK-2018-07-24-x1436,02_20180724_Exp01_Main_exp_d2_Read 3_Spectrum.tsv,F2,NK-2018-07-24-blank_1,1,250,325,False,150,12_2,5,1,,
NK-2018-07-23-design-31,NK-2018-07-24-x1437,02_20180724_Exp01_Main_exp_d2_Read 3_Spectrum.tsv,F3,NK-2018-07-24-blank_1,1,250,325,False,150,General center_2,2,1,,
NK-2018-07-23-design-32,NK-2018-07-24-x1438,02_20180724_Exp01_Main_exp_d2_Read 3_Spectrum.tsv,F4,NK-2018-07-24-blank_1,1,250,325,True,150,Negative Ctrl_2,1,1,,
NK-2018-07-23-design-17,NK-2018-07-24-x1439,03_20180724_Exp01_Main_exp_d2_Read 3_Spectrum.tsv,F5,NK-2018-07-24-blank_1,1,250,325,False,217,7,5,1,,
NK-2018-07-23-design-18,NK-2018-07-24-x1440,03_20180724_Exp01_Main_exp_d2_Read 3_Spectrum.tsv,F6,NK-2018-07-24-blank_1,1,250,325,False,217,8,5,1,,
NK-2018-07-23-design-19,NK-2018-07-24-x1441,03_20180724_Exp01_Main_exp_d2_Read 3_Spectrum.tsv,F7,NK-2018-07-24-blank_1,1,250,325,False,217,9,0.8,1,,
NK-2018-07-23-design-20,NK-2018-07-24-x1442,03_20180724_Exp01_Main_exp_d2_Read 3_Spectrum.tsv,F8,NK-2018-07-24-blank_1,1,250,325,False,217,10,5,1,,
NK-2018-07-23-design-21,NK-2018-07-24-x1443,03_20180724_Exp01_Main_exp_d2_Read 3_Spectrum.tsv,F9,NK-2018-07-24-blank_1,1,250,325,False,217,11,0.8,1,,
NK-2018-07-23-design-22,NK-2018-07-24-x1444,03_20180724_Exp01_Main_exp_d2_Read 3_Spectrum.tsv,F10,NK-2018-07-24-blank_1,1,250,325,False,217,12,5,1,,
NK-2018-07-23-design-23,NK-2018-07-24-x1445,03_20180724_Exp01_Main_exp_d2_Read 3_Spectrum.tsv,F11,NK-2018-07-24-blank_1,1,250,325,False,217,General center,2,1,,
NK-2018-07-23-design-24,NK-2018-07-24-x1446,03_20180724_Exp01_Main_exp_d2_Read 3_Spectrum.tsv,F12,NK-2018-07-24-blank_1,1,250,325,False,217,Negative Ctrl,1,1,,
NK-2018-07-23-design-25,NK-2018-07-24-x1447,04_20180724_Exp01_Main_exp_d2_Read 3_Spectrum.tsv,G1,NK-2018-07-24-blank_1,1,250,325,False,217,7_2,5,1,,
NK-2018-07-23-design-26,NK-2018-07-24-x1448,04_20180724_Exp01_Main_exp_d2_Read 3_Spectrum.tsv,G2,NK-2018-07-24-blank_1,1,250,325,False,217,8_2,5,1,,
NK-2018-07-23-design-27,NK-2018-07-24-x1449,04_20180724_Exp01_Main_exp_d2_Read 3_Spectrum.tsv,G3,NK-2018-07-24-blank_1,1,250,325,False,217,9_2,0.8,1,,
NK-2018-07-23-design-28,NK-2018-07-24-x1450,04_20180724_Exp01_Main_exp_d2_Read 3_Spectrum.tsv,G4,NK-2018-07-24-blank_1,1,250,325,False,217,10_2,5,1,,
NK-2018-07-23-design-29,NK-2018-07-24-x1451,04_20180724_Exp01_Main_exp_d2_Read 3_Spectrum.tsv,G5,NK-2018-07-24-blank_1,1,250,325,False,217,11_2,0.8,1,,
NK-2018-07-23-design-30,NK-2018-07-24-x1452,04_20180724_Exp01_Main_exp_d2_Read 3_Spectrum.tsv,G6,NK-2018-07-24-blank_1,1,250,325,False,217,12_2,5,1,,
NK-2018-07-23-design-31,NK-2018-07-24-x1453,04_20180724_Exp01_Main_exp_d2_Read 3_Spectrum.tsv,G7,NK-2018-07-24-blank_1,1,250,325,False,217,General center_2,2,1,,
NK-2018-07-23-design-32,NK-2018-07-24-x1454,04_20180724_Exp01_Main_exp_d2_Read 3_Spectrum.tsv,G8,NK-2018-07-24-blank_1,1,250,325,True,217,Negative Ctrl_2,1,1,,
NK-2018-07-23-design-17,NK-2018-07-24-x1455,04_20180724_Exp01_Main_exp_d2_Read 3_Spectrum.tsv,G9,NK-2018-07-24-blank_1,1,250,325,False,289,7,5,1,,
NK-2018-07-23-design-18,NK-2018-07-24-x1456,04_20180724_Exp01_Main_exp_d2_Read 3_Spectrum.tsv,G10,NK-2018-07-24-blank_1,1,250,325,False,289,8,5,1,,
NK-2018-07-23-design-19,NK-2018-07-24-x1457,04_20180724_Exp01_Main_exp_d2_Read 3_Spectrum.tsv,G11,NK-2018-07-24-blank_1,1,250,325,False,289,9,0.8,1,,
NK-2018-07-23-design-20,NK-2018-07-24-x1458,04_20180724_Exp01_Main_exp_d2_Read 3_Spectrum.tsv,G12,NK-2018-07-24-blank_1,1,250,325,False,289,10,5,1,,
NK-2018-07-23-design-21,NK-2018-07-24-x1459,04_20180724_Exp01_Main_exp_d2_Read 3_Spectrum.tsv,H1,NK-2018-07-24-blank_1,1,250,325,False,289,11,0.8,1,,
NK-2018-07-23-design-22,NK-2018-07-24-x1460,04_20180724_Exp01_Main_exp_d2_Read 3_Spectrum.tsv,H2,NK-2018-07-24-blank_1,1,250,325,False,289,12,5,1,,
NK-2018-07-23-design-23,NK-2018-07-24-x1461,04_20180724_Exp01_Main_exp_d2_Read 3_Spectrum.tsv,H3,NK-2018-07-24-blank_1,1,250,325,False,289,General center,2,1,,
NK-2018-07-23-design-24,NK-2018-07-24-x1462,04_20180724_Exp01_Main_exp_d2_Read 3_Spectrum.tsv,H4,NK-2018-07-24-blank_1,1,250,325,False,289,Negative Ctrl,1,1,,
NK-2018-07-23-design-25,NK-2018-07-24-x1463,04_20180724_Exp01_Main_exp_d2_Read 3_Spectrum.tsv,H5,NK-2018-07-24-blank_1,1,250,325,False,289,7_2,5,1,,
NK-2018-07-23-design-26,NK-2018-07-24-x1464,04_20180724_Exp01_Main_exp_d2_Read 3_Spectrum.tsv,H6,NK-2018-07-24-blank_1,1,250,325,False,289,8_2,5,1,,
NK-2018-07-23-design-27,NK-2018-07-24-x1465,04_20180724_Exp01_Main_exp_d2_Read 3_Spectrum.tsv,H7,NK-2018-07-24-blank_1,1,250,325,False,289,9_2,0.8,1,,
NK-2018-07-23-design-28,NK-2018-07-24-x1466,04_20180724_Exp01_Main_exp_d2_Read 3_Spectrum.tsv,H8,NK-2018-07-24-blank_1,1,250,325,False,289,10_2,5,1,,
NK-2018-07-23-design-29,NK-2018-07-24-x1467,04_20180724_Exp01_Main_exp_d2_Read 3_Spectrum.tsv,H9,NK-2018-07-24-blank_1,1,250,325,False,289,11_2,0.8,1,,
NK-2018-07-23-design-30,NK-2018-07-24-x1468,04_20180724_Exp01_Main_exp_d2_Read 3_Spectrum.tsv,H10,NK-2018-07-24-blank_1,1,250,325,False,289,12_2,5,1,,
NK-2018-07-23-design-31,NK-2018-07-24-x1469,04_20180724_Exp01_Main_exp_d2_Read 3_Spectrum.tsv,H11,NK-2018-07-24-blank_1,1,250,325,False,289,General center_2,2,1,,
NK-2018-07-23-design-32,NK-2018-07-24-x1470,04_20180724_Exp01_Main_exp_d2_Read 3_Spectrum.tsv,H12,NK-2018-07-24-blank_1,1,250,325,True,289,Negative Ctrl_2,1,1,,
NK-2018-07-23-design-17,NK-2018-07-24-x1471,05_20180724_Exp01_Main_exp_d2_Read 3_Spectrum.tsv,A3,NK-2018-07-24-blank_1,1,250,325,False,1440,7,5,1,,
NK-2018-07-23-design-18,NK-2018-07-24-x1472,05_20180724_Exp01_Main_exp_d2_Read 3_Spectrum.tsv,A4,NK-2018-07-24-blank_1,1,250,325,False,1440,8,5,1,,
NK-2018-07-23-design-19,NK-2018-07-24-x1473,05_20180724_Exp01_Main_exp_d2_Read 3_Spectrum.tsv,A5,NK-2018-07-24-blank_1,1,250,325,False,1440,9,0.8,1,,
NK-2018-07-23-design-20,NK-2018-07-24-x1474,05_20180724_Exp01_Main_exp_d2_Read 3_Spectrum.tsv,A6,NK-2018-07-24-blank_1,1,250,325,False,1440,10,5,1,,
NK-2018-07-23-design-21,NK-2018-07-24-x1475,05_20180724_Exp01_Main_exp_d2_Read 3_Spectrum.tsv,A7,NK-2018-07-24-blank_1,1,250,325,False,1440,11,0.8,1,,
NK-2018-07-23-design-22,NK-2018-07-24-x1476,05_20180724_Exp01_Main_exp_d2_Read 3_Spectrum.tsv,A8,NK-2018-07-24-blank_1,1,250,325,False,1440,12,5,1,,
NK-2018-07-23-design-23,NK-2018-07-24-x1477,05_20180724_Exp01_Main_exp_d2_Read 3_Spectrum.tsv,A9,NK-2018-07-24-blank_1,1,250,325,False,1440,General center,2,1,,
NK-2018-07-23-design-24,NK-2018-07-24-x1478,05_20180724_Exp01_Main_exp_d2_Read 3_Spectrum.tsv,A10,NK-2018-07-24-blank_1,1,250,325,False,1440,Negative Ctrl,1,1,,
NK-2018-07-23-design-25,NK-2018-07-24-x1479,05_20180724_Exp01_Main_exp_d2_Read 3_Spectrum.tsv,A11,NK-2018-07-24-blank_1,1,250,325,False,1440,7_2,5,1,,
NK-2018-07-23-design-26,NK-2018-07-24-x1480,05_20180724_Exp01_Main_exp_d2_Read 3_Spectrum.tsv,A12,NK-2018-07-24-blank_1,1,250,325,False,1440,8_2,5,1,,
NK-2018-07-23-design-27,NK-2018-07-24-x1481,06_20180724_Exp01_Main_exp_d2_Read 3_Spectrum.tsv,B1,NK-2018-07-24-blank_1,1,250,325,False,1440,9_2,0.8,1,,
NK-2018-07-23-design-28,NK-2018-07-24-x1482,06_20180724_Exp01_Main_exp_d2_Read 3_Spectrum.tsv,B2,NK-2018-07-24-blank_1,1,250,325,False,1440,10_2,5,1,,
NK-2018-07-23-design-29,NK-2018-07-24-x1483,06_20180724_Exp01_Main_exp_d2_Read 3_Spectrum.tsv,B3,NK-2018-07-24-blank_1,1,250,325,False,1440,11_2,0.8,1,,
NK-2018-07-23-design-30,NK-2018-07-24-x1484,06_20180724_Exp01_Main_exp_d2_Read 3_Spectrum.tsv,B4,NK-2018-07-24-blank_1,1,250,325,False,1440,12_2,5,1,,
NK-2018-07-23-design-31,NK-2018-07-24-x1485,06_20180724_Exp01_Main_exp_d2_Read 3_Spectrum.tsv,B5,NK-2018-07-24-blank_1,1,250,325,False,1440,General center_2,2,1,,
NK-2018-07-23-design-32,NK-2018-07-24-x1486,06_20180724_Exp01_Main_exp_d2_Read 3_Spectrum.tsv,B6,NK-2018-07-24-blank_1,1,250,325,True,1440,Negative Ctrl_2,1,1,,
,,,,,,,,,,,,,,
NK-2018-07-23-design-blank,NK-2018-07-25-blank,01_20180725_Exp01_Main_exp_d3_Read 3_Spectrum.tsv,A2,NK-2018-07-25-blank,1,250,325,False,,blank,0,1,,
NK-2018-07-23-design-33,NK-2018-07-25-x1503,02_20180725_Exp01_Main_exp_d3_Read 3_Spectrum.tsv,B7,NK-2018-07-25-blank,1,250,325,False,0,13,2.2,1,,
NK-2018-07-23-design-34,NK-2018-07-25-x1504,02_20180725_Exp01_Main_exp_d3_Read 3_Spectrum.tsv,B8,NK-2018-07-25-blank,1,250,325,False,0,14,2.2,1,,
NK-2018-07-23-design-35,NK-2018-07-25-x1505,02_20180725_Exp01_Main_exp_d3_Read 3_Spectrum.tsv,B9,NK-2018-07-25-blank,1,250,325,False,0,15,2.2,1,,
NK-2018-07-23-design-36,NK-2018-07-25-x1506,02_20180725_Exp01_Main_exp_d3_Read 3_Spectrum.tsv,B10,NK-2018-07-25-blank,1,250,325,False,0,16,2.2,1,,
NK-2018-07-23-design-37,NK-2018-07-25-x1507,02_20180725_Exp01_Main_exp_d3_Read 3_Spectrum.tsv,B11,NK-2018-07-25-blank,1,250,325,False,0,17,2.2,1,,
NK-2018-07-23-design-38,NK-2018-07-25-x1508,02_20180725_Exp01_Main_exp_d3_Read 3_Spectrum.tsv,B12,NK-2018-07-25-blank,1,250,325,False,0,18,3.6,1,,
NK-2018-07-23-design-39,NK-2018-07-25-x1509,02_20180725_Exp01_Main_exp_d3_Read 3_Spectrum.tsv,C1,NK-2018-07-25-blank,1,250,325,False,0,General center,2,1,,
NK-2018-07-23-design-40,NK-2018-07-25-x1510,02_20180725_Exp01_Main_exp_d3_Read 3_Spectrum.tsv,C2,NK-2018-07-25-blank,1,250,325,False,0,Negative Ctrl,1,1,,
NK-2018-07-23-design-41,NK-2018-07-25-x1511,02_20180725_Exp01_Main_exp_d3_Read 3_Spectrum.tsv,C3,NK-2018-07-25-blank,1,250,325,False,0,13_2,2.2,1,,
NK-2018-07-23-design-42,NK-2018-07-25-x1512,02_20180725_Exp01_Main_exp_d3_Read 3_Spectrum.tsv,C4,NK-2018-07-25-blank,1,250,325,False,0,14_2,2.2,1,,
NK-2018-07-23-design-43,NK-2018-07-25-x1513,02_20180725_Exp01_Main_exp_d3_Read 3_Spectrum.tsv,C5,NK-2018-07-25-blank,1,250,325,False,0,15_2,2.2,1,,
NK-2018-07-23-design-44,NK-2018-07-25-x1514,02_20180725_Exp01_Main_exp_d3_Read 3_Spectrum.tsv,C6,NK-2018-07-25-blank,1,250,325,False,0,16_2,2.2,1,,
NK-2018-07-23-design-45,NK-2018-07-25-x1515,02_20180725_Exp01_Main_exp_d3_Read 3_Spectrum.tsv,C7,NK-2018-07-25-blank,1,250,325,False,0,17_2,2.2,1,,
NK-2018-07-23-design-46,NK-2018-07-25-x1516,02_20180725_Exp01_Main_exp_d3_Read 3_Spectrum.tsv,C8,NK-2018-07-25-blank,1,250,325,False,0,18_2,3.6,1,,
NK-2018-07-23-design-47,NK-2018-07-25-x1517,02_20180725_Exp01_Main_exp_d3_Read 3_Spectrum.tsv,C9,NK-2018-07-25-blank,1,250,325,False,0,General center_2,2,1,,
NK-2018-07-23-design-48,NK-2018-07-25-x1518,02_20180725_Exp01_Main_exp_d3_Read 3_Spectrum.tsv,C10,NK-2018-07-25-blank,1,250,325,True,0,Negative Ctrl_2,1,1,,
NK-2018-07-23-design-33,NK-2018-07-25-x1519,02_20180725_Exp01_Main_exp_d3_Read 3_Spectrum.tsv,C11,NK-2018-07-25-blank,1,250,325,False,20,13,2.2,1,,
NK-2018-07-23-design-34,NK-2018-07-25-x1520,02_20180725_Exp01_Main_exp_d3_Read 3_Spectrum.tsv,C12,NK-2018-07-25-blank,1,250,325,False,20,14,2.2,1,,
NK-2018-07-23-design-35,NK-2018-07-25-x1521,02_20180725_Exp01_Main_exp_d3_Read 3_Spectrum.tsv,D1,NK-2018-07-25-blank,1,250,325,False,20,15,2.2,1,,
NK-2018-07-23-design-36,NK-2018-07-25-x1522,02_20180725_Exp01_Main_exp_d3_Read 3_Spectrum.tsv,D2,NK-2018-07-25-blank,1,250,325,False,20,16,2.2,1,,
NK-2018-07-23-design-37,NK-2018-07-25-x1523,02_20180725_Exp01_Main_exp_d3_Read 3_Spectrum.tsv,D3,NK-2018-07-25-blank,1,250,325,False,20,17,2.2,1,,
NK-2018-07-23-design-38,NK-2018-07-25-x1524,02_20180725_Exp01_Main_exp_d3_Read 3_Spectrum.tsv,D4,NK-2018-07-25-blank,1,250,325,False,20,18,3.6,1,,
NK-2018-07-23-design-39,NK-2018-07-25-x1525,02_20180725_Exp01_Main_exp_d3_Read 3_Spectrum.tsv,D5,NK-2018-07-25-blank,1,250,325,False,20,General center,2,1,,
NK-2018-07-23-design-40,NK-2018-07-25-x1526,02_20180725_Exp01_Main_exp_d3_Read 3_Spectrum.tsv,D6,NK-2018-07-25-blank,1,250,325,False,20,Negative Ctrl,1,1,,
NK-2018-07-23-design-41,NK-2018-07-25-x1527,02_20180725_Exp01_Main_exp_d3_Read 3_Spectrum.tsv,D7,NK-2018-07-25-blank,1,250,325,False,20,13_2,2.2,1,,
NK-2018-07-23-design-42,NK-2018-07-25-x1528,02_20180725_Exp01_Main_exp_d3_Read 3_Spectrum.tsv,D8,NK-2018-07-25-blank,1,250,325,False,20,14_2,2.2,1,,
NK-2018-07-23-design-43,NK-2018-07-25-x1529,02_20180725_Exp01_Main_exp_d3_Read 3_Spectrum.tsv,D9,NK-2018-07-25-blank,1,250,325,False,20,15_2,2.2,1,,
NK-2018-07-23-design-44,NK-2018-07-25-x1530,02_20180725_Exp01_Main_exp_d3_Read 3_Spectrum.tsv,D10,NK-2018-07-25-blank,1,250,325,False,20,16_2,2.2,1,,
NK-2018-07-23-design-45,NK-2018-07-25-x1531,02_20180725_Exp01_Main_exp_d3_Read 3_Spectrum.tsv,D11,NK-2018-07-25-blank,1,250,325,False,20,17_2,2.2,1,,
NK-2018-07-23-design-46,NK-2018-07-25-x1532,02_20180725_Exp01_Main_exp_d3_Read 3_Spectrum.tsv,D12,NK-2018-07-25-blank,1,250,325,False,20,18_2,3.6,1,,
NK-2018-07-23-design-47,NK-2018-07-25-x1533,02_20180725_Exp01_Main_exp_d3_Read 3_Spectrum.tsv,E1,NK-2018-07-25-blank,1,250,325,False,20,General center_2,2,1,,
NK-2018-07-23-design-48,NK-2018-07-25-x1534,02_20180725_Exp01_Main_exp_d3_Read 3_Spectrum.tsv,E2,NK-2018-07-25-blank,1,250,325,True,20,Negative Ctrl_2,1,1,,
NK-2018-07-23-design-33,NK-2018-07-25-x1535,02_20180725_Exp01_Main_exp_d3_Read 3_Spectrum.tsv,E3,NK-2018-07-25-blank,1,250,325,False,45,13,2.2,1,,
NK-2018-07-23-design-34,NK-2018-07-25-x1536,02_20180725_Exp01_Main_exp_d3_Read 3_Spectrum.tsv,E4,NK-2018-07-25-blank,1,250,325,False,45,14,2.2,1,,
NK-2018-07-23-design-35,NK-2018-07-25-x1537,02_20180725_Exp01_Main_exp_d3_Read 3_Spectrum.tsv,E5,NK-2018-07-25-blank,1,250,325,False,45,15,2.2,1,,
NK-2018-07-23-design-36,NK-2018-07-25-x1538,02_20180725_Exp01_Main_exp_d3_Read 3_Spectrum.tsv,E6,NK-2018-07-25-blank,1,250,325,False,45,16,2.2,1,,
NK-2018-07-23-design-37,NK-2018-07-25-x1539,02_20180725_Exp01_Main_exp_d3_Read 3_Spectrum.tsv,E7,NK-2018-07-25-blank,1,250,325,False,45,17,2.2,1,,
NK-2018-07-23-design-38,NK-2018-07-25-x1540,02_20180725_Exp01_Main_exp_d3_Read 3_Spectrum.tsv,E8,NK-2018-07-25-blank,1,250,325,False,45,18,3.6,1,,
NK-2018-07-23-design-39,NK-2018-07-25-x1541,02_20180725_Exp01_Main_exp_d3_Read 3_Spectrum.tsv,E9,NK-2018-07-25-blank,1,250,325,False,45,General center,2,1,,
NK-2018-07-23-design-40,NK-2018-07-25-x1542,02_20180725_Exp01_Main_exp_d3_Read 3_Spectrum.tsv,E10,NK-2018-07-25-blank,1,250,325,False,45,Negative Ctrl,1,1,,
NK-2018-07-23-design-41,NK-2018-07-25-x1543,02_20180725_Exp01_Main_exp_d3_Read 3_Spectrum.tsv,E11,NK-2018-07-25-blank,1,250,325,False,45,13_2,2.2,1,,
NK-2018-07-23-design-42,NK-2018-07-25-x1544,02_20180725_Exp01_Main_exp_d3_Read 3_Spectrum.tsv,E12,NK-2018-07-25-blank,1,250,325,False,45,14_2,2.2,1,,
NK-2018-07-23-design-43,NK-2018-07-25-x1545,02_20180725_Exp01_Main_exp_d3_Read 3_Spectrum.tsv,F1,NK-2018-07-25-blank,1,250,325,False,45,15_2,2.2,1,,
NK-2018-07-23-design-44,NK-2018-07-25-x1546,02_20180725_Exp01_Main_exp_d3_Read 3_Spectrum.tsv,F2,NK-2018-07-25-blank,1,250,325,False,45,16_2,2.2,1,,
NK-2018-07-23-design-45,NK-2018-07-25-x1547,02_20180725_Exp01_Main_exp_d3_Read 3_Spectrum.tsv,F3,NK-2018-07-25-blank,1,250,325,False,45,17_2,2.2,1,,
NK-2018-07-23-design-46,NK-2018-07-25-x1548,02_20180725_Exp01_Main_exp_d3_Read 3_Spectrum.tsv,F4,NK-2018-07-25-blank,1,250,325,False,45,18_2,3.6,1,,
NK-2018-07-23-design-47,NK-2018-07-25-x1549,02_20180725_Exp01_Main_exp_d3_Read 3_Spectrum.tsv,F5,NK-2018-07-25-blank,1,250,325,False,45,General center_2,2,1,,
NK-2018-07-23-design-48,NK-2018-07-25-x1550,02_20180725_Exp01_Main_exp_d3_Read 3_Spectrum.tsv,F6,NK-2018-07-25-blank,1,250,325,True,45,Negative Ctrl_2,1,1,,
NK-2018-07-23-design-33,NK-2018-07-25-x1551,02_20180725_Exp01_Main_exp_d3_Read 3_Spectrum.tsv,F7,NK-2018-07-25-blank,1,250,325,False,90,13,2.2,1,,
NK-2018-07-23-design-34,NK-2018-07-25-x1552,02_20180725_Exp01_Main_exp_d3_Read 3_Spectrum.tsv,F8,NK-2018-07-25-blank,1,250,325,False,90,14,2.2,1,,
NK-2018-07-23-design-35,NK-2018-07-25-x1553,02_20180725_Exp01_Main_exp_d3_Read 3_Spectrum.tsv,F9,NK-2018-07-25-blank,1,250,325,False,90,15,2.2,1,,
NK-2018-07-23-design-36,NK-2018-07-25-x1554,02_20180725_Exp01_Main_exp_d3_Read 3_Spectrum.tsv,F10,NK-2018-07-25-blank,1,250,325,False,90,16,2.2,1,,
NK-2018-07-23-design-37,NK-2018-07-25-x1555,02_20180725_Exp01_Main_exp_d3_Read 3_Spectrum.tsv,F11,NK-2018-07-25-blank,1,250,325,False,90,17,2.2,1,,
NK-2018-07-23-design-38,NK-2018-07-25-x1556,02_20180725_Exp01_Main_exp_d3_Read 3_Spectrum.tsv,F12,NK-2018-07-25-blank,1,250,325,False,90,18,3.6,1,,
NK-2018-07-23-design-39,NK-2018-07-25-x1557,02_20180725_Exp01_Main_exp_d3_Read 3_Spectrum.tsv,G1,NK-2018-07-25-blank,1,250,325,False,90,General center,2,1,,
NK-2018-07-23-design-40,NK-2018-07-25-x1558,02_20180725_Exp01_Main_exp_d3_Read 3_Spectrum.tsv,G2,NK-2018-07-25-blank,1,250,325,False,90,Negative Ctrl,1,1,,
NK-2018-07-23-design-41,NK-2018-07-25-x1559,02_20180725_Exp01_Main_exp_d3_Read 3_Spectrum.tsv,G3,NK-2018-07-25-blank,1,250,325,False,90,13_2,2.2,1,,
NK-2018-07-23-design-42,NK-2018-07-25-x1560,02_20180725_Exp01_Main_exp_d3_Read 3_Spectrum.tsv,G4,NK-2018-07-25-blank,1,250,325,False,90,14_2,2.2,1,,
NK-2018-07-23-design-43,NK-2018-07-25-x1561,02_20180725_Exp01_Main_exp_d3_Read 3_Spectrum.tsv,G5,NK-2018-07-25-blank,1,250,325,False,90,15_2,2.2,1,,
NK-2018-07-23-design-44,NK-2018-07-25-x1562,02_20180725_Exp01_Main_exp_d3_Read 3_Spectrum.tsv,G6,NK-2018-07-25-blank,1,250,325,False,90,16_2,2.2,1,,
NK-2018-07-23-design-45,NK-2018-07-25-x1563,02_20180725_Exp01_Main_exp_d3_Read 3_Spectrum.tsv,G7,NK-2018-07-25-blank,1,250,325,False,90,17_2,2.2,1,,
NK-2018-07-23-design-46,NK-2018-07-25-x1564,02_20180725_Exp01_Main_exp_d3_Read 3_Spectrum.tsv,G8,NK-2018-07-25-blank,1,250,325,False,90,18_2,3.6,1,,
NK-2018-07-23-design-47,NK-2018-07-25-x1565,02_20180725_Exp01_Main_exp_d3_Read 3_Spectrum.tsv,G9,NK-2018-07-25-blank,1,250,325,False,90,General center_2,2,1,,
NK-2018-07-23-design-48,NK-2018-07-25-x1566,02_20180725_Exp01_Main_exp_d3_Read 3_Spectrum.tsv,G10,NK-2018-07-25-blank,1,250,325,True,90,Negative Ctrl_2,1,1,,
NK-2018-07-23-design-33,NK-2018-07-25-x1567,03_20180725_Exp01_Main_exp_d3_Read 3_Spectrum.tsv,G11,NK-2018-07-25-blank,1,250,325,False,155,13,2.2,1,,
NK-2018-07-23-design-34,NK-2018-07-25-x1568,03_20180725_Exp01_Main_exp_d3_Read 3_Spectrum.tsv,G12,NK-2018-07-25-blank,1,250,325,False,155,14,2.2,1,,
NK-2018-07-23-design-35,NK-2018-07-25-x1569,04_20180725_Exp01_Main_exp_d3_Read 3_Spectrum.tsv,H1,NK-2018-07-25-blank,1,250,325,False,155,15,2.2,1,,
NK-2018-07-23-design-36,NK-2018-07-25-x1570,04_20180725_Exp01_Main_exp_d3_Read 3_Spectrum.tsv,H2,NK-2018-07-25-blank,1,250,325,False,155,16,2.2,1,,
NK-2018-07-23-design-37,NK-2018-07-25-x1571,04_20180725_Exp01_Main_exp_d3_Read 3_Spectrum.tsv,H3,NK-2018-07-25-blank,1,250,325,False,155,17,2.2,1,,
NK-2018-07-23-design-38,NK-2018-07-25-x1572,04_20180725_Exp01_Main_exp_d3_Read 3_Spectrum.tsv,H4,NK-2018-07-25-blank,1,250,325,False,155,18,3.6,1,,
NK-2018-07-23-design-39,NK-2018-07-25-x1573,04_20180725_Exp01_Main_exp_d3_Read 3_Spectrum.tsv,H5,NK-2018-07-25-blank,1,250,325,False,155,General center,2,1,,
NK-2018-07-23-design-40,NK-2018-07-25-x1574,04_20180725_Exp01_Main_exp_d3_Read 3_Spectrum.tsv,H6,NK-2018-07-25-blank,1,250,325,False,155,Negative Ctrl,1,1,,
NK-2018-07-23-design-41,NK-2018-07-25-x1575,05_20180725_Exp01_Main_exp_d3_Read 3_Spectrum.tsv,A1,NK-2018-07-25-blank,1,250,325,False,155,13_2,2.2,1,,
NK-2018-07-23-design-42,NK-2018-07-25-x1576,05_20180725_Exp01_Main_exp_d3_Read 3_Spectrum.tsv,A2,NK-2018-07-25-blank,1,250,325,False,155,14_2,2.2,1,,
NK-2018-07-23-design-43,NK-2018-07-25-x1577,05_20180725_Exp01_Main_exp_d3_Read 3_Spectrum.tsv,A3,NK-2018-07-25-blank,1,250,325,False,155,15_2,2.2,1,,
NK-2018-07-23-design-44,NK-2018-07-25-x1578,05_20180725_Exp01_Main_exp_d3_Read 3_Spectrum.tsv,A4,NK-2018-07-25-blank,1,250,325,False,155,16_2,2.2,1,,
NK-2018-07-23-design-45,NK-2018-07-25-x1579,05_20180725_Exp01_Main_exp_d3_Read 3_Spectrum.tsv,A5,NK-2018-07-25-blank,1,250,325,False,155,17_2,2.2,1,,
NK-2018-07-23-design-46,NK-2018-07-25-x1580,05_20180725_Exp01_Main_exp_d3_Read 3_Spectrum.tsv,A6,NK-2018-07-25-blank,1,250,325,False,155,18_2,3.6,1,,
NK-2018-07-23-design-47,NK-2018-07-25-x1581,05_20180725_Exp01_Main_exp_d3_Read 3_Spectrum.tsv,A7,NK-2018-07-25-blank,1,250,325,False,155,General center_2,2,1,,
NK-2018-07-23-design-48,NK-2018-07-25-x1582,05_20180725_Exp01_Main_exp_d3_Read 3_Spectrum.tsv,A8,NK-2018-07-25-blank,1,250,325,True,155,Negative Ctrl_2,1,1,,
NK-2018-07-23-design-33,NK-2018-07-25-x1583,05_20180725_Exp01_Main_exp_d3_Read 3_Spectrum.tsv,A9,NK-2018-07-25-blank,1,250,325,False,217,13,2.2,1,,
NK-2018-07-23-design-34,NK-2018-07-25-x1584,05_20180725_Exp01_Main_exp_d3_Read 3_Spectrum.tsv,A10,NK-2018-07-25-blank,1,250,325,False,217,14,2.2,1,,
NK-2018-07-23-design-35,NK-2018-07-25-x1585,05_20180725_Exp01_Main_exp_d3_Read 3_Spectrum.tsv,A11,NK-2018-07-25-blank,1,250,325,False,217,15,2.2,1,,
NK-2018-07-23-design-36,NK-2018-07-25-x1586,05_20180725_Exp01_Main_exp_d3_Read 3_Spectrum.tsv,A12,NK-2018-07-25-blank,1,250,325,False,217,16,2.2,1,,
NK-2018-07-23-design-37,NK-2018-07-25-x1587,05_20180725_Exp01_Main_exp_d3_Read 3_Spectrum.tsv,B1,NK-2018-07-25-blank,1,250,325,False,217,17,2.2,1,,
NK-2018-07-23-design-38,NK-2018-07-25-x1588,05_20180725_Exp01_Main_exp_d3_Read 3_Spectrum.tsv,B2,NK-2018-07-25-blank,1,250,325,False,217,18,3.6,1,,
NK-2018-07-23-design-39,NK-2018-07-25-x1589,05_20180725_Exp01_Main_exp_d3_Read 3_Spectrum.tsv,B3,NK-2018-07-25-blank,1,250,325,False,217,General center,2,1,,
NK-2018-07-23-design-40,NK-2018-07-25-x1590,05_20180725_Exp01_Main_exp_d3_Read 3_Spectrum.tsv,B4,NK-2018-07-25-blank,1,250,325,False,217,Negative Ctrl,1,1,,
NK-2018-07-23-design-41,NK-2018-07-25-x1591,05_20180725_Exp01_Main_exp_d3_Read 3_Spectrum.tsv,B5,NK-2018-07-25-blank,1,250,325,False,217,13_2,2.2,1,,
NK-2018-07-23-design-42,NK-2018-07-25-x1592,05_20180725_Exp01_Main_exp_d3_Read 3_Spectrum.tsv,B6,NK-2018-07-25-blank,1,250,325,False,217,14_2,2.2,1,,
NK-2018-07-23-design-43,NK-2018-07-25-x1593,05_20180725_Exp01_Main_exp_d3_Read 3_Spectrum.tsv,B7,NK-2018-07-25-blank,1,250,325,False,217,15_2,2.2,1,,
NK-2018-07-23-design-44,NK-2018-07-25-x1594,05_20180725_Exp01_Main_exp_d3_Read 3_Spectrum.tsv,B8,NK-2018-07-25-blank,1,250,325,False,217,16_2,2.2,1,,
NK-2018-07-23-design-45,NK-2018-07-25-x1595,05_20180725_Exp01_Main_exp_d3_Read 3_Spectrum.tsv,B9,NK-2018-07-25-blank,1,250,325,False,217,17_2,2.2,1,,
NK-2018-07-23-design-46,NK-2018-07-25-x1596,05_20180725_Exp01_Main_exp_d3_Read 3_Spectrum.tsv,B10,NK-2018-07-25-blank,1,250,325,False,217,18_2,3.6,1,,
NK-2018-07-23-design-47,NK-2018-07-25-x1597,05_20180725_Exp01_Main_exp_d3_Read 3_Spectrum.tsv,B11,NK-2018-07-25-blank,1,250,325,False,217,General center_2,2,1,,
NK-2018-07-23-design-48,NK-2018-07-25-x1598,05_20180725_Exp01_Main_exp_d3_Read 3_Spectrum.tsv,B12,NK-2018-07-25-blank,1,250,325,True,217,Negative Ctrl_2,1,1,,
NK-2018-07-23-design-33,NK-2018-07-25-x1599,06_20180725_Exp01_Main_exp_d3_Read 3_Spectrum.tsv,C1,NK-2018-07-25-blank,1,250,325,False,280,13,2.2,1,,
NK-2018-07-23-design-34,NK-2018-07-25-x1600,06_20180725_Exp01_Main_exp_d3_Read 3_Spectrum.tsv,C2,NK-2018-07-25-blank,1,250,325,False,280,14,2.2,1,,
NK-2018-07-23-design-35,NK-2018-07-25-x1601,06_20180725_Exp01_Main_exp_d3_Read 3_Spectrum.tsv,C3,NK-2018-07-25-blank,1,250,325,False,280,15,2.2,1,,
NK-2018-07-23-design-36,NK-2018-07-25-x1602,06_20180725_Exp01_Main_exp_d3_Read 3_Spectrum.tsv,C4,NK-2018-07-25-blank,1,250,325,False,280,16,2.2,1,,
NK-2018-07-23-design-37,NK-2018-07-25-x1603,06_20180725_Exp01_Main_exp_d3_Read 3_Spectrum.tsv,C5,NK-2018-07-25-blank,1,250,325,False,280,17,2.2,1,,
NK-2018-07-23-design-38,NK-2018-07-25-x1604,06_20180725_Exp01_Main_exp_d3_Read 3_Spectrum.tsv,C6,NK-2018-07-25-blank,1,250,325,False,280,18,3.6,1,,
NK-2018-07-23-design-39,NK-2018-07-25-x1605,06_20180725_Exp01_Main_exp_d3_Read 3_Spectrum.tsv,C7,NK-2018-07-25-blank,1,250,325,False,280,General center,2,1,,
NK-2018-07-23-design-40,NK-2018-07-25-x1606,06_20180725_Exp01_Main_exp_d3_Read 3_Spectrum.tsv,C8,NK-2018-07-25-blank,1,250,325,False,280,Negative Ctrl,1,1,,
NK-2018-07-23-design-41,NK-2018-07-25-x1607,06_20180725_Exp01_Main_exp_d3_Read 3_Spectrum.tsv,C9,NK-2018-07-25-blank,1,250,325,False,280,13_2,2.2,1,,
NK-2018-07-23-design-42,NK-2018-07-25-x1608,06_20180725_Exp01_Main_exp_d3_Read 3_Spectrum.tsv,C10,NK-2018-07-25-blank,1,250,325,False,280,14_2,2.2,1,,
NK-2018-07-23-design-43,NK-2018-07-25-x1609,06_20180725_Exp01_Main_exp_d3_Read 3_Spectrum.tsv,C11,NK-2018-07-25-blank,1,250,325,False,280,15_2,2.2,1,,
NK-2018-07-23-design-44,NK-2018-07-25-x1610,06_20180725_Exp01_Main_exp_d3_Read 3_Spectrum.tsv,C12,NK-2018-07-25-blank,1,250,325,False,280,16_2,2.2,1,,
NK-2018-07-23-design-45,NK-2018-07-25-x1611,07_20180725_Exp01_Main_exp_d3_Read 3_Spectrum.tsv,D1,NK-2018-07-25-blank,1,250,325,False,280,17_2,2.2,1,,
NK-2018-07-23-design-46,NK-2018-07-25-x1612,07_20180725_Exp01_Main_exp_d3_Read 3_Spectrum.tsv,D2,NK-2018-07-25-blank,1,250,325,False,280,18_2,3.6,1,,
NK-2018-07-23-design-47,NK-2018-07-25-x1613,07_20180725_Exp01_Main_exp_d3_Read 3_Spectrum.tsv,D3,NK-2018-07-25-blank,1,250,325,False,280,General center_2,2,1,,
NK-2018-07-23-design-48,NK-2018-07-25-x1614,07_20180725_Exp01_Main_exp_d3_Read 3_Spectrum.tsv,D4,NK-2018-07-25-blank,1,250,325,True,280,Negative Ctrl_2,1,1,,
NK-2018-07-23-design-33,NK-2018-07-25-x1615,09_20180725_Exp01_Main_exp_d3_Read 3_Spectrum.tsv,E1,NK-2018-07-25-blank,1,250,325,False,1440,13,2.2,1,,
NK-2018-07-23-design-34,NK-2018-07-25-x1616,09_20180725_Exp01_Main_exp_d3_Read 3_Spectrum.tsv,E2,NK-2018-07-25-blank,1,250,325,False,1440,14,2.2,1,,
NK-2018-07-23-design-35,NK-2018-07-25-x1617,09_20180725_Exp01_Main_exp_d3_Read 3_Spectrum.tsv,E3,NK-2018-07-25-blank,1,250,325,False,1440,15,2.2,1,,
NK-2018-07-23-design-36,NK-2018-07-25-x1618,09_20180725_Exp01_Main_exp_d3_Read 3_Spectrum.tsv,E4,NK-2018-07-25-blank,1,250,325,False,1440,16,2.2,1,,
NK-2018-07-23-design-37,NK-2018-07-25-x1619,09_20180725_Exp01_Main_exp_d3_Read 3_Spectrum.tsv,E5,NK-2018-07-25-blank,1,250,325,False,1440,17,2.2,1,,
NK-2018-07-23-design-38,NK-2018-07-25-x1620,09_20180725_Exp01_Main_exp_d3_Read 3_Spectrum.tsv,E6,NK-2018-07-25-blank,1,250,325,False,1440,18,3.6,1,,
NK-2018-07-23-design-39,NK-2018-07-25-x1621,09_20180725_Exp01_Main_exp_d3_Read 3_Spectrum.tsv,E7,NK-2018-07-25-blank,1,250,325,False,1440,General center,2,1,,
NK-2018-07-23-design-40,NK-2018-07-25-x1622,09_20180725_Exp01_Main_exp_d3_Read 3_Spectrum.tsv,E8,NK-2018-07-25-blank,1,250,325,False,1440,Negative Ctrl,1,1,,
NK-2018-07-23-design-41,NK-2018-07-25-x1623,09_20180725_Exp01_Main_exp_d3_Read 3_Spectrum.tsv,E9,NK-2018-07-25-blank,1,250,325,False,1440,13_2,2.2,1,,
NK-2018-07-23-design-42,NK-2018-07-25-x1624,09_20180725_Exp01_Main_exp_d3_Read 3_Spectrum.tsv,E10,NK-2018-07-25-blank,1,250,325,False,1440,14_2,2.2,1,,
NK-2018-07-23-design-43,NK-2018-07-25-x1625,09_20180725_Exp01_Main_exp_d3_Read 3_Spectrum.tsv,E11,NK-2018-07-25-blank,1,250,325,False,1440,15_2,2.2,1,,
NK-2018-07-23-design-44,NK-2018-07-25-x1626,09_20180725_Exp01_Main_exp_d3_Read 3_Spectrum.tsv,E12,NK-2018-07-25-blank,1,250,325,False,1440,16_2,2.2,1,,
NK-2018-07-23-design-45,NK-2018-07-25-x1627,09_20180725_Exp01_Main_exp_d3_Read 3_Spectrum.tsv,F1,NK-2018-07-25-blank,1,250,325,False,1440,17_2,2.2,1,,
NK-2018-07-23-design-46,NK-2018-07-25-x1628,09_20180725_Exp01_Main_exp_d3_Read 3_Spectrum.tsv,F2,NK-2018-07-25-blank,1,250,325,False,1440,18_2,3.6,1,,
NK-2018-07-23-design-47,NK-2018-07-25-x1629,09_20180725_Exp01_Main_exp_d3_Read 3_Spectrum.tsv,F3,NK-2018-07-25-blank,1,250,325,False,1440,General center_2,2,1,,
NK-2018-07-23-design-48,NK-2018-07-25-x1630,09_20180725_Exp01_Main_exp_d3_Read 3_Spectrum.tsv,F4,NK-2018-07-25-blank,1,250,325,True,1440,Negative Ctrl_2,1,1,,
NK-2018-07-23-design-33,NK-2018-07-25-x1631,09_20180725_Exp01_Main_exp_d3_Read 3_Spectrum.tsv,F5,NK-2018-07-25-blank,1,250,325,False,1450,13,2.2,1,,
NK-2018-07-23-design-34,NK-2018-07-25-x1632,09_20180725_Exp01_Main_exp_d3_Read 3_Spectrum.tsv,F6,NK-2018-07-25-blank,1,250,325,False,1450,14,2.2,1,,
NK-2018-07-23-design-35,NK-2018-07-25-x1633,09_20180725_Exp01_Main_exp_d3_Read 3_Spectrum.tsv,F7,NK-2018-07-25-blank,1,250,325,False,1450,15,2.2,1,,
NK-2018-07-23-design-36,NK-2018-07-25-x1634,09_20180725_Exp01_Main_exp_d3_Read 3_Spectrum.tsv,F8,NK-2018-07-25-blank,1,250,325,False,1450,16,2.2,1,,
NK-2018-07-23-design-37,NK-2018-07-25-x1635,09_20180725_Exp01_Main_exp_d3_Read 3_Spectrum.tsv,F9,NK-2018-07-25-blank,1,250,325,False,1450,17,2.2,1,,
NK-2018-07-23-design-38,NK-2018-07-25-x1636,09_20180725_Exp01_Main_exp_d3_Read 3_Spectrum.tsv,F10,NK-2018-07-25-blank,1,250,325,False,1450,18,3.6,1,,
NK-2018-07-23-design-39,NK-2018-07-25-x1637,09_20180725_Exp01_Main_exp_d3_Read 3_Spectrum.tsv,F11,NK-2018-07-25-blank,1,250,325,False,1450,General center,2,1,,
NK-2018-07-23-design-40,NK-2018-07-25-x1638,09_20180725_Exp01_Main_exp_d3_Read 3_Spectrum.tsv,F12,NK-2018-07-25-blank,1,250,325,False,1450,Negative Ctrl,1,1,,
NK-2018-07-23-design-41,NK-2018-07-25-x1639,09_20180725_Exp01_Main_exp_d3_Read 3_Spectrum.tsv,G1,NK-2018-07-25-blank,1,250,325,False,1450,13_2,2.2,1,,
NK-2018-07-23-design-42,NK-2018-07-25-x1640,09_20180725_Exp01_Main_exp_d3_Read 3_Spectrum.tsv,G2,NK-2018-07-25-blank,1,250,325,False,1450,14_2,2.2,1,,
NK-2018-07-23-design-43,NK-2018-07-25-x1641,09_20180725_Exp01_Main_exp_d3_Read 3_Spectrum.tsv,G3,NK-2018-07-25-blank,1,250,325,False,1450,15_2,2.2,1,,
NK-2018-07-23-design-44,NK-2018-07-25-x1642,09_20180725_Exp01_Main_exp_d3_Read 3_Spectrum.tsv,G4,NK-2018-07-25-blank,1,250,325,False,1450,16_2,2.2,1,,
NK-2018-07-23-design-45,NK-2018-07-25-x1643,09_20180725_Exp01_Main_exp_d3_Read 3_Spectrum.tsv,G5,NK-2018-07-25-blank,1,250,325,False,1450,17_2,2.2,1,,
NK-2018-07-23-design-46,NK-2018-07-25-x1644,09_20180725_Exp01_Main_exp_d3_Read 3_Spectrum.tsv,G6,NK-2018-07-25-blank,1,250,325,False,1450,18_2,3.6,1,,
NK-2018-07-23-design-47,NK-2018-07-25-x1645,09_20180725_Exp01_Main_exp_d3_Read 3_Spectrum.tsv,G7,NK-2018-07-25-blank,1,250,325,False,1450,General center_2,2,1,,
NK-2018-07-23-design-48,NK-2018-07-25-x1646,09_20180725_Exp01_Main_exp_d3_Read 3_Spectrum.tsv,G8,NK-2018-07-25-blank,1,250,325,True,1450,Negative Ctrl_2,1,1,,
,,,,,,,,,,,,,,
NK-2018-07-23-design-blank,NK-2018-07-26-blank_1,01_20180726_Exp01_Main_exp_d4_Read 3_Spectrum.tsv,G9,NK-2018-07-26-blank_1,1,250,325,False,,blank,0,1,,
NK-2018-07-23-design-blank,NK-2018-07-26-blank_2,01_20180726_Exp01_Main_exp_d4_Read 3_Spectrum.tsv,G10,NK-2018-07-26-blank_1,1,250,325,False,,blank,0,1,,
NK-2018-07-23-design-49,NK-2018-07-26-x1659,02_20180726_Exp01_Main_exp_d4_Read 3_Spectrum.tsv,H1,NK-2018-07-26-blank_1,1,250,325,False,0,19,3.6,1,,
NK-2018-07-23-design-50,NK-2018-07-26-x1660,02_20180726_Exp01_Main_exp_d4_Read 3_Spectrum.tsv,H2,NK-2018-07-26-blank_1,1,250,325,False,0,20,3.6,1,,
NK-2018-07-23-design-51,NK-2018-07-26-x1661,02_20180726_Exp01_Main_exp_d4_Read 3_Spectrum.tsv,H3,NK-2018-07-26-blank_1,1,250,325,False,0,21,3.6,1,,
NK-2018-07-23-design-52,NK-2018-07-26-x1662,02_20180726_Exp01_Main_exp_d4_Read 3_Spectrum.tsv,H4,NK-2018-07-26-blank_1,1,250,325,False,0,22,3.6,1,,
NK-2018-07-23-design-53,NK-2018-07-26-x1663,02_20180726_Exp01_Main_exp_d4_Read 3_Spectrum.tsv,H5,NK-2018-07-26-blank_1,1,250,325,False,0,General center,2,1,,
NK-2018-07-23-design-54,NK-2018-07-26-x1664,02_20180726_Exp01_Main_exp_d4_Read 3_Spectrum.tsv,H6,NK-2018-07-26-blank_1,1,250,325,False,0,Negative Ctrl,1,1,,
NK-2018-07-23-design-55,NK-2018-07-26-x1665,02_20180726_Exp01_Main_exp_d4_Read 3_Spectrum.tsv,H7,NK-2018-07-26-blank_1,1,250,325,False,0,19_2,3.6,1,,
NK-2018-07-23-design-56,NK-2018-07-26-x1666,02_20180726_Exp01_Main_exp_d4_Read 3_Spectrum.tsv,H8,NK-2018-07-26-blank_1,1,250,325,False,0,20_2,3.6,1,,
NK-2018-07-23-design-57,NK-2018-07-26-x1667,02_20180726_Exp01_Main_exp_d4_Read 3_Spectrum.tsv,H9,NK-2018-07-26-blank_1,1,250,325,False,0,21_2,3.6,1,,
NK-2018-07-23-design-58,NK-2018-07-26-x1668,02_20180726_Exp01_Main_exp_d4_Read 3_Spectrum.tsv,H10,NK-2018-07-26-blank_1,1,250,325,False,0,22_2,3.6,1,,
NK-2018-07-23-design-59,NK-2018-07-26-x1669,02_20180726_Exp01_Main_exp_d4_Read 3_Spectrum.tsv,H11,NK-2018-07-26-blank_1,1,250,325,False,0,General center_2,2,1,,
NK-2018-07-23-design-60,NK-2018-07-26-x1670,02_20180726_Exp01_Main_exp_d4_Read 3_Spectrum.tsv,H12,NK-2018-07-26-blank_1,1,250,325,True,0,Negative Ctrl_2,1,1,,
NK-2018-07-23-design-49,NK-2018-07-26-x1671,03_20180726_Exp01_Main_exp_d4_Read 3_Spectrum.tsv,A1,NK-2018-07-26-blank_1,1,250,325,False,20,19,3.6,1,,
NK-2018-07-23-design-50,NK-2018-07-26-x1672,03_20180726_Exp01_Main_exp_d4_Read 3_Spectrum.tsv,A2,NK-2018-07-26-blank_1,1,250,325,False,20,20,3.6,1,,
NK-2018-07-23-design-51,NK-2018-07-26-x1673,03_20180726_Exp01_Main_exp_d4_Read 3_Spectrum.tsv,A3,NK-2018-07-26-blank_1,1,250,325,False,20,21,3.6,1,,
NK-2018-07-23-design-52,NK-2018-07-26-x1674,03_20180726_Exp01_Main_exp_d4_Read 3_Spectrum.tsv,A4,NK-2018-07-26-blank_1,1,250,325,False,20,22,3.6,1,,
NK-2018-07-23-design-53,NK-2018-07-26-x1675,03_20180726_Exp01_Main_exp_d4_Read 3_Spectrum.tsv,A5,NK-2018-07-26-blank_1,1,250,325,False,20,General center,2,1,,
NK-2018-07-23-design-54,NK-2018-07-26-x1676,03_20180726_Exp01_Main_exp_d4_Read 3_Spectrum.tsv,A6,NK-2018-07-26-blank_1,1,250,325,False,20,Negative Ctrl,1,1,,
NK-2018-07-23-design-55,NK-2018-07-26-x1677,03_20180726_Exp01_Main_exp_d4_Read 3_Spectrum.tsv,A7,NK-2018-07-26-blank_1,1,250,325,False,20,19_2,3.6,1,,
NK-2018-07-23-design-56,NK-2018-07-26-x1678,03_20180726_Exp01_Main_exp_d4_Read 3_Spectrum.tsv,A8,NK-2018-07-26-blank_1,1,250,325,False,20,20_2,3.6,1,,
NK-2018-07-23-design-57,NK-2018-07-26-x1679,03_20180726_Exp01_Main_exp_d4_Read 3_Spectrum.tsv,A9,NK-2018-07-26-blank_1,1,250,325,False,20,21_2,3.6,1,,
NK-2018-07-23-design-58,NK-2018-07-26-x1680,03_20180726_Exp01_Main_exp_d4_Read 3_Spectrum.tsv,A10,NK-2018-07-26-blank_1,1,250,325,False,20,22_2,3.6,1,,
NK-2018-07-23-design-59,NK-2018-07-26-x1681,03_20180726_Exp01_Main_exp_d4_Read 3_Spectrum.tsv,A11,NK-2018-07-26-blank_1,1,250,325,False,20,General center_2,2,1,,
NK-2018-07-23-design-60,NK-2018-07-26-x1682,03_20180726_Exp01_Main_exp_d4_Read 3_Spectrum.tsv,A12,NK-2018-07-26-blank_1,1,250,325,True,20,Negative Ctrl_2,1,1,,
NK-2018-07-23-design-49,NK-2018-07-26-x1683,03_20180726_Exp01_Main_exp_d4_Read 3_Spectrum.tsv,B1,NK-2018-07-26-blank_1,1,250,325,False,45,19,3.6,1,,
NK-2018-07-23-design-50,NK-2018-07-26-x1684,03_20180726_Exp01_Main_exp_d4_Read 3_Spectrum.tsv,B2,NK-2018-07-26-blank_1,1,250,325,False,45,20,3.6,1,,
NK-2018-07-23-design-51,NK-2018-07-26-x1685,03_20180726_Exp01_Main_exp_d4_Read 3_Spectrum.tsv,B3,NK-2018-07-26-blank_1,1,250,325,False,45,21,3.6,1,,
NK-2018-07-23-design-52,NK-2018-07-26-x1686,03_20180726_Exp01_Main_exp_d4_Read 3_Spectrum.tsv,B4,NK-2018-07-26-blank_1,1,250,325,False,45,22,3.6,1,,
NK-2018-07-23-design-53,NK-2018-07-26-x1687,03_20180726_Exp01_Main_exp_d4_Read 3_Spectrum.tsv,B5,NK-2018-07-26-blank_1,1,250,325,False,45,General center,2,1,,
NK-2018-07-23-design-54,NK-2018-07-26-x1688,03_20180726_Exp01_Main_exp_d4_Read 3_Spectrum.tsv,B6,NK-2018-07-26-blank_1,1,250,325,False,45,Negative Ctrl,1,1,,
NK-2018-07-23-design-55,NK-2018-07-26-x1689,03_20180726_Exp01_Main_exp_d4_Read 3_Spectrum.tsv,B7,NK-2018-07-26-blank_1,1,250,325,False,45,19_2,3.6,1,,
NK-2018-07-23-design-56,NK-2018-07-26-x1690,03_20180726_Exp01_Main_exp_d4_Read 3_Spectrum.tsv,B8,NK-2018-07-26-blank_1,1,250,325,False,45,20_2,3.6,1,,
NK-2018-07-23-design-57,NK-2018-07-26-x1691,03_20180726_Exp01_Main_exp_d4_Read 3_Spectrum.tsv,B9,NK-2018-07-26-blank_1,1,250,325,False,45,21_2,3.6,1,,
NK-2018-07-23-design-58,NK-2018-07-26-x1692,03_20180726_Exp01_Main_exp_d4_Read 3_Spectrum.tsv,B10,NK-2018-07-26-blank_1,1,250,325,False,45,22_2,3.6,1,,
NK-2018-07-23-design-59,NK-2018-07-26-x1693,03_20180726_Exp01_Main_exp_d4_Read 3_Spectrum.tsv,B11,NK-2018-07-26-blank_1,1,250,325,False,45,General center_2,2,1,,
NK-2018-07-23-design-60,NK-2018-07-26-x1694,03_20180726_Exp01_Main_exp_d4_Read 3_Spectrum.tsv,B12,NK-2018-07-26-blank_1,1,250,325,True,45,Negative Ctrl_2,1,1,,
NK-2018-07-23-design-49,NK-2018-07-26-x1695,03_20180726_Exp01_Main_exp_d4_Read 3_Spectrum.tsv,C1,NK-2018-07-26-blank_1,1,250,325,False,90,19,3.6,1,,
NK-2018-07-23-design-50,NK-2018-07-26-x1696,03_20180726_Exp01_Main_exp_d4_Read 3_Spectrum.tsv,C2,NK-2018-07-26-blank_1,1,250,325,False,90,20,3.6,1,,
NK-2018-07-23-design-51,NK-2018-07-26-x1697,03_20180726_Exp01_Main_exp_d4_Read 3_Spectrum.tsv,C3,NK-2018-07-26-blank_1,1,250,325,False,90,21,3.6,1,,
NK-2018-07-23-design-52,NK-2018-07-26-x1698,03_20180726_Exp01_Main_exp_d4_Read 3_Spectrum.tsv,C4,NK-2018-07-26-blank_1,1,250,325,False,90,22,3.6,1,,
NK-2018-07-23-design-53,NK-2018-07-26-x1699,03_20180726_Exp01_Main_exp_d4_Read 3_Spectrum.tsv,C5,NK-2018-07-26-blank_1,1,250,325,False,90,General center,2,1,,
NK-2018-07-23-design-54,NK-2018-07-26-x1700,03_20180726_Exp01_Main_exp_d4_Read 3_Spectrum.tsv,C6,NK-2018-07-26-blank_1,1,250,325,False,90,Negative Ctrl,1,1,,
NK-2018-07-23-design-55,NK-2018-07-26-x1701,03_20180726_Exp01_Main_exp_d4_Read 3_Spectrum.tsv,C7,NK-2018-07-26-blank_1,1,250,325,False,90,19_2,3.6,1,,
NK-2018-07-23-design-56,NK-2018-07-26-x1702,03_20180726_Exp01_Main_exp_d4_Read 3_Spectrum.tsv,C8,NK-2018-07-26-blank_1,1,250,325,False,90,20_2,3.6,1,,
NK-2018-07-23-design-57,NK-2018-07-26-x1703,03_20180726_Exp01_Main_exp_d4_Read 3_Spectrum.tsv,C9,NK-2018-07-26-blank_1,1,250,325,False,90,21_2,3.6,1,,
NK-2018-07-23-design-58,NK-2018-07-26-x1704,03_20180726_Exp01_Main_exp_d4_Read 3_Spectrum.tsv,C10,NK-2018-07-26-blank_1,1,250,325,False,90,22_2,3.6,1,,
NK-2018-07-23-design-59,NK-2018-07-26-x1705,03_20180726_Exp01_Main_exp_d4_Read 3_Spectrum.tsv,C11,NK-2018-07-26-blank_1,1,250,325,False,90,General center_2,2,1,,
NK-2018-07-23-design-60,NK-2018-07-26-x1706,03_20180726_Exp01_Main_exp_d4_Read 3_Spectrum.tsv,C12,NK-2018-07-26-blank_1,1,250,325,True,90,Negative Ctrl_2,1,1,,
NK-2018-07-23-design-49,NK-2018-07-26-x1707,04_20180726_Exp01_Main_exp_d4_Read 3_Spectrum.tsv,D1,NK-2018-07-26-blank_1,1,250,325,False,151,19,3.6,1,,
NK-2018-07-23-design-50,NK-2018-07-26-x1708,04_20180726_Exp01_Main_exp_d4_Read 3_Spectrum.tsv,D2,NK-2018-07-26-blank_1,1,250,325,False,151,20,3.6,1,,
NK-2018-07-23-design-51,NK-2018-07-26-x1709,04_20180726_Exp01_Main_exp_d4_Read 3_Spectrum.tsv,D3,NK-2018-07-26-blank_1,1,250,325,False,151,21,3.6,1,,
NK-2018-07-23-design-52,NK-2018-07-26-x1710,04_20180726_Exp01_Main_exp_d4_Read 3_Spectrum.tsv,D4,NK-2018-07-26-blank_1,1,250,325,False,151,22,3.6,1,,
NK-2018-07-23-design-53,NK-2018-07-26-x1711,04_20180726_Exp01_Main_exp_d4_Read 3_Spectrum.tsv,D5,NK-2018-07-26-blank_1,1,250,325,False,151,General center,2,1,,
NK-2018-07-23-design-54,NK-2018-07-26-x1712,04_20180726_Exp01_Main_exp_d4_Read 3_Spectrum.tsv,D6,NK-2018-07-26-blank_1,1,250,325,False,151,Negative Ctrl,1,1,,
NK-2018-07-23-design-55,NK-2018-07-26-x1713,04_20180726_Exp01_Main_exp_d4_Read 3_Spectrum.tsv,D7,NK-2018-07-26-blank_1,1,250,325,False,151,19_2,3.6,1,,
NK-2018-07-23-design-56,NK-2018-07-26-x1714,04_20180726_Exp01_Main_exp_d4_Read 3_Spectrum.tsv,D8,NK-2018-07-26-blank_1,1,250,325,False,151,20_2,3.6,1,,
NK-2018-07-23-design-57,NK-2018-07-26-x1715,04_20180726_Exp01_Main_exp_d4_Read 3_Spectrum.tsv,D9,NK-2018-07-26-blank_1,1,250,325,False,151,21_2,3.6,1,,
NK-2018-07-23-design-58,NK-2018-07-26-x1716,04_20180726_Exp01_Main_exp_d4_Read 3_Spectrum.tsv,D10,NK-2018-07-26-blank_1,1,250,325,False,151,22_2,3.6,1,,
NK-2018-07-23-design-59,NK-2018-07-26-x1717,04_20180726_Exp01_Main_exp_d4_Read 3_Spectrum.tsv,D11,NK-2018-07-26-blank_1,1,250,325,False,151,General center_2,2,1,,
NK-2018-07-23-design-60,NK-2018-07-26-x1718,04_20180726_Exp01_Main_exp_d4_Read 3_Spectrum.tsv,D12,NK-2018-07-26-blank_1,1,250,325,True,151,Negative Ctrl_2,1,1,,
NK-2018-07-23-design-49,NK-2018-07-26-x1719,04_20180726_Exp01_Main_exp_d4_Read 3_Spectrum.tsv,E1,NK-2018-07-26-blank_1,1,250,325,False,211,19,3.6,1,,
NK-2018-07-23-design-50,NK-2018-07-26-x1720,04_20180726_Exp01_Main_exp_d4_Read 3_Spectrum.tsv,E2,NK-2018-07-26-blank_1,1,250,325,False,211,20,3.6,1,,
NK-2018-07-23-design-51,NK-2018-07-26-x1721,04_20180726_Exp01_Main_exp_d4_Read 3_Spectrum.tsv,E3,NK-2018-07-26-blank_1,1,250,325,False,211,21,3.6,1,,
NK-2018-07-23-design-52,NK-2018-07-26-x1722,04_20180726_Exp01_Main_exp_d4_Read 3_Spectrum.tsv,E4,NK-2018-07-26-blank_1,1,250,325,False,211,22,3.6,1,,
NK-2018-07-23-design-53,NK-2018-07-26-x1723,04_20180726_Exp01_Main_exp_d4_Read 3_Spectrum.tsv,E5,NK-2018-07-26-blank_1,1,250,325,False,211,General center,2,1,,
NK-2018-07-23-design-54,NK-2018-07-26-x1724,04_20180726_Exp01_Main_exp_d4_Read 3_Spectrum.tsv,E6,NK-2018-07-26-blank_1,1,250,325,False,211,Negative Ctrl,1,1,,
NK-2018-07-23-design-55,NK-2018-07-26-x1725,04_20180726_Exp01_Main_exp_d4_Read 3_Spectrum.tsv,E7,NK-2018-07-26-blank_1,1,250,325,False,211,19_2,3.6,1,,
NK-2018-07-23-design-56,NK-2018-07-26-x1726,04_20180726_Exp01_Main_exp_d4_Read 3_Spectrum.tsv,E8,NK-2018-07-26-blank_1,1,250,325,False,211,20_2,3.6,1,,
NK-2018-07-23-design-57,NK-2018-07-26-x1727,04_20180726_Exp01_Main_exp_d4_Read 3_Spectrum.tsv,E9,NK-2018-07-26-blank_1,1,250,325,False,211,21_2,3.6,1,,
NK-2018-07-23-design-58,NK-2018-07-26-x1728,04_20180726_Exp01_Main_exp_d4_Read 3_Spectrum.tsv,E10,NK-2018-07-26-blank_1,1,250,325,False,211,22_2,3.6,1,,
NK-2018-07-23-design-59,NK-2018-07-26-x1729,04_20180726_Exp01_Main_exp_d4_Read 3_Spectrum.tsv,E11,NK-2018-07-26-blank_1,1,250,325,False,211,General center_2,2,1,,
NK-2018-07-23-design-60,NK-2018-07-26-x1730,04_20180726_Exp01_Main_exp_d4_Read 3_Spectrum.tsv,E12,NK-2018-07-26-blank_1,1,250,325,True,211,Negative Ctrl_2,1,1,,
NK-2018-07-23-design-49,NK-2018-07-26-x1731,05_20180726_Exp01_Main_exp_d4_Read 3_Spectrum.tsv,F1,NK-2018-07-26-blank_1,1,250,325,False,290,19,3.6,1,,
NK-2018-07-23-design-50,NK-2018-07-26-x1732,05_20180726_Exp01_Main_exp_d4_Read 3_Spectrum.tsv,F2,NK-2018-07-26-blank_1,1,250,325,False,290,20,3.6,1,,
NK-2018-07-23-design-51,NK-2018-07-26-x1733,05_20180726_Exp01_Main_exp_d4_Read 3_Spectrum.tsv,F3,NK-2018-07-26-blank_1,1,250,325,False,290,21,3.6,1,,
NK-2018-07-23-design-52,NK-2018-07-26-x1734,05_20180726_Exp01_Main_exp_d4_Read 3_Spectrum.tsv,F4,NK-2018-07-26-blank_1,1,250,325,False,290,22,3.6,1,,
NK-2018-07-23-design-53,NK-2018-07-26-x1735,05_20180726_Exp01_Main_exp_d4_Read 3_Spectrum.tsv,F5,NK-2018-07-26-blank_1,1,250,325,False,290,General center,2,1,,
NK-2018-07-23-design-54,NK-2018-07-26-x1736,05_20180726_Exp01_Main_exp_d4_Read 3_Spectrum.tsv,F6,NK-2018-07-26-blank_1,1,250,325,False,290,Negative Ctrl,1,1,,
NK-2018-07-23-design-55,NK-2018-07-26-x1737,05_20180726_Exp01_Main_exp_d4_Read 3_Spectrum.tsv,F7,NK-2018-07-26-blank_1,1,250,325,False,290,19_2,3.6,1,,
NK-2018-07-23-design-56,NK-2018-07-26-x1738,05_20180726_Exp01_Main_exp_d4_Read 3_Spectrum.tsv,F8,NK-2018-07-26-blank_1,1,250,325,False,290,20_2,3.6,1,,
NK-2018-07-23-design-57,NK-2018-07-26-x1739,05_20180726_Exp01_Main_exp_d4_Read 3_Spectrum.tsv,F9,NK-2018-07-26-blank_1,1,250,325,False,290,21_2,3.6,1,,
NK-2018-07-23-design-58,NK-2018-07-26-x1740,05_20180726_Exp01_Main_exp_d4_Read 3_Spectrum.tsv,F10,NK-2018-07-26-blank_1,1,250,325,False,290,22_2,3.6,1,,
NK-2018-07-23-design-59,NK-2018-07-26-x1741,05_20180726_Exp01_Main_exp_d4_Read 3_Spectrum.tsv,F11,NK-2018-07-26-blank_1,1,250,325,False,290,General center_2,2,1,,
NK-2018-07-23-design-60,NK-2018-07-26-x1742,05_20180726_Exp01_Main_exp_d4_Read 3_Spectrum.tsv,F12,NK-2018-07-26-blank_1,1,250,325,True,290,Negative Ctrl_2,1,1,,
NK-2018-07-23-design-49,NK-2018-07-26-x1743,06_20180726_Exp01_Main_exp_d4_Read 3_Spectrum.tsv,G1,NK-2018-07-26-blank_1,1,250,325,False,1440,19,3.6,1,,
NK-2018-07-23-design-50,NK-2018-07-26-x1744,06_20180726_Exp01_Main_exp_d4_Read 3_Spectrum.tsv,G2,NK-2018-07-26-blank_1,1,250,325,False,1440,20,3.6,1,,
NK-2018-07-23-design-51,NK-2018-07-26-x1745,06_20180726_Exp01_Main_exp_d4_Read 3_Spectrum.tsv,G3,NK-2018-07-26-blank_1,1,250,325,False,1440,21,3.6,1,,
NK-2018-07-23-design-52,NK-2018-07-26-x1746,06_20180726_Exp01_Main_exp_d4_Read 3_Spectrum.tsv,G4,NK-2018-07-26-blank_1,1,250,325,False,1440,22,3.6,1,,
NK-2018-07-23-design-53,NK-2018-07-26-x1747,06_20180726_Exp01_Main_exp_d4_Read 3_Spectrum.tsv,G5,NK-2018-07-26-blank_1,1,250,325,False,1440,General center,2,1,,
NK-2018-07-23-design-54,NK-2018-07-26-x1748,06_20180726_Exp01_Main_exp_d4_Read 3_Spectrum.tsv,G6,NK-2018-07-26-blank_1,1,250,325,False,1440,Negative Ctrl,1,1,,
NK-2018-07-23-design-55,NK-2018-07-26-x1749,06_20180726_Exp01_Main_exp_d4_Read 3_Spectrum.tsv,G7,NK-2018-07-26-blank_1,1,250,325,False,1440,19_2,3.6,1,,
NK-2018-07-23-design-56,NK-2018-07-26-x1750,06_20180726_Exp01_Main_exp_d4_Read 3_Spectrum.tsv,G8,NK-2018-07-26-blank_1,1,250,325,False,1440,20_2,3.6,1,,
NK-2018-07-23-design-57,NK-2018-07-26-x1751,06_20180726_Exp01_Main_exp_d4_Read 3_Spectrum.tsv,G9,NK-2018-07-26-blank_1,1,250,325,False,1440,21_2,3.6,1,,
NK-2018-07-23-design-58,NK-2018-07-26-x1752,06_20180726_Exp01_Main_exp_d4_Read 3_Spectrum.tsv,G10,NK-2018-07-26-blank_1,1,250,325,False,1440,22_2,3.6,1,,
NK-2018-07-23-design-59,NK-2018-07-26-x1753,06_20180726_Exp01_Main_exp_d4_Read 3_Spectrum.tsv,G11,NK-2018-07-26-blank_1,1,250,325,False,1440,General center_2,2,1,,
NK-2018-07-23-design-60,NK-2018-07-26-x1754,06_20180726_Exp01_Main_exp_d4_Read 3_Spectrum.tsv,G12,NK-2018-07-26-blank_1,1,250,325,True,1440,Negative Ctrl_2,1,1,,
NK-2018-07-23-design-49,NK-2018-07-26-x1755,06_20180726_Exp01_Main_exp_d4_Read 3_Spectrum.tsv,H1,NK-2018-07-26-blank_1,1,250,325,False,1450,19,3.6,1,,
NK-2018-07-23-design-50,NK-2018-07-26-x1756,06_20180726_Exp01_Main_exp_d4_Read 3_Spectrum.tsv,H2,NK-2018-07-26-blank_1,1,250,325,False,1450,20,3.6,1,,
NK-2018-07-23-design-51,NK-2018-07-26-x1757,06_20180726_Exp01_Main_exp_d4_Read 3_Spectrum.tsv,H3,NK-2018-07-26-blank_1,1,250,325,False,1450,21,3.6,1,,
NK-2018-07-23-design-52,NK-2018-07-26-x1758,06_20180726_Exp01_Main_exp_d4_Read 3_Spectrum.tsv,H4,NK-2018-07-26-blank_1,1,250,325,False,1450,22,3.6,1,,
NK-2018-07-23-design-53,NK-2018-07-26-x1759,06_20180726_Exp01_Main_exp_d4_Read 3_Spectrum.tsv,H5,NK-2018-07-26-blank_1,1,250,325,False,1450,General center,2,1,,
NK-2018-07-23-design-54,NK-2018-07-26-x1760,06_20180726_Exp01_Main_exp_d4_Read 3_Spectrum.tsv,H6,NK-2018-07-26-blank_1,1,250,325,False,1450,Negative Ctrl,1,1,,
NK-2018-07-23-design-55,NK-2018-07-26-x1761,06_20180726_Exp01_Main_exp_d4_Read 3_Spectrum.tsv,H7,NK-2018-07-26-blank_1,1,250,325,False,1450,19_2,3.6,1,,
NK-2018-07-23-design-56,NK-2018-07-26-x1762,06_20180726_Exp01_Main_exp_d4_Read 3_Spectrum.tsv,H8,NK-2018-07-26-blank_1,1,250,325,False,1450,20_2,3.6,1,,
NK-2018-07-23-design-57,NK-2018-07-26-x1763,06_20180726_Exp01_Main_exp_d4_Read 3_Spectrum.tsv,H9,NK-2018-07-26-blank_1,1,250,325,False,1450,21_2,3.6,1,,
NK-2018-07-23-design-58,NK-2018-07-26-x1764,06_20180726_Exp01_Main_exp_d4_Read 3_Spectrum.tsv,H10,NK-2018-07-26-blank_1,1,250,325,False,1450,22_2,3.6,1,,
NK-2018-07-23-design-59,NK-2018-07-26-x1765,06_20180726_Exp01_Main_exp_d4_Read 3_Spectrum.tsv,H11,NK-2018-07-26-blank_1,1,250,325,False,1450,General center_2,2,1,,
NK-2018-07-23-design-60,NK-2018-07-26-x1766,06_20180726_Exp01_Main_exp_d4_Read 3_Spectrum.tsv,H12,NK-2018-07-26-blank_1,1,250,325,True,1450,Negative Ctrl_2,1,1,,
